<?xml version="1.0" encoding="UTF-8"?>
<session version="1.0">
<refactoring comment="Delete resource &apos;ManToMen&apos;" deleteContents="false" description="Delete resource &apos;ManToMen&apos;" element1="/ManToMen" flags="7" id="org.eclipse.ltk.core.refactoring.delete.resources" resources="1" stamp="1445101627014"/>
</session>