127.0.0.1 - - [15/Oct/2015:13:44:07 +0900] "GET /MenTomen/BoardList.bo?pageVal=1&page=1 HTTP/1.1" 200 4423
127.0.0.1 - - [15/Oct/2015:14:33:54 +0900] "GET /MenTomen/MemberIndex.me HTTP/1.1" 200 2705
127.0.0.1 - - [15/Oct/2015:14:33:56 +0900] "GET /MenTomen/css/index.css HTTP/1.1" 304 -
127.0.0.1 - - [15/Oct/2015:14:33:56 +0900] "GET /MenTomen/img/banner2.png HTTP/1.1" 304 -
127.0.0.1 - - [15/Oct/2015:14:33:57 +0900] "GET /MenTomen/img/home.jpg HTTP/1.1" 304 -
127.0.0.1 - - [15/Oct/2015:14:33:57 +0900] "GET /MenTomen/img/lec.png HTTP/1.1" 304 -
127.0.0.1 - - [15/Oct/2015:14:33:57 +0900] "GET /MenTomen/img/notice.png HTTP/1.1" 304 -
127.0.0.1 - - [15/Oct/2015:14:33:58 +0900] "GET /MenTomen/img/lib.jpg HTTP/1.1" 304 -
127.0.0.1 - - [15/Oct/2015:14:33:58 +0900] "GET /MenTomen/img/e.jpg HTTP/1.1" 304 -
127.0.0.1 - - [15/Oct/2015:14:33:58 +0900] "GET /MenTomen/img/qna.png HTTP/1.1" 304 -
127.0.0.1 - - [15/Oct/2015:14:33:58 +0900] "GET /MenTomen/img/sw.jpg HTTP/1.1" 304 -
127.0.0.1 - - [15/Oct/2015:14:33:58 +0900] "GET /MenTomen/img/mento.png HTTP/1.1" 304 -
127.0.0.1 - - [15/Oct/2015:14:34:00 +0900] "GET /favicon.ico HTTP/1.1" 404 -
127.0.0.1 - - [15/Oct/2015:18:23:46 +0900] "GET /MenTomen/MemberIndex.me HTTP/1.1" 200 2705
127.0.0.1 - - [15/Oct/2015:18:23:46 +0900] "GET /MenTomen/img/notice.png HTTP/1.1" 200 6667
127.0.0.1 - - [15/Oct/2015:18:23:46 +0900] "GET /MenTomen/img/qna.png HTTP/1.1" 200 9682
127.0.0.1 - - [15/Oct/2015:18:23:46 +0900] "GET /MenTomen/img/lec.png HTTP/1.1" 200 6345
127.0.0.1 - - [15/Oct/2015:18:23:46 +0900] "GET /MenTomen/img/lib.jpg HTTP/1.1" 200 7260
127.0.0.1 - - [15/Oct/2015:18:23:46 +0900] "GET /MenTomen/img/home.jpg HTTP/1.1" 200 22414
127.0.0.1 - - [15/Oct/2015:18:23:46 +0900] "GET /MenTomen/img/sw.jpg HTTP/1.1" 200 5297
127.0.0.1 - - [15/Oct/2015:18:23:46 +0900] "GET /MenTomen/img/e.jpg HTTP/1.1" 200 5484
127.0.0.1 - - [15/Oct/2015:18:23:46 +0900] "GET /MenTomen/img/banner2.png HTTP/1.1" 200 282003
127.0.0.1 - - [15/Oct/2015:18:23:46 +0900] "GET /MenTomen/img/mento.png HTTP/1.1" 200 237464
127.0.0.1 - - [15/Oct/2015:18:23:53 +0900] "GET /MenTomen/BoardList.bo?pageVal=1 HTTP/1.1" 200 4423
127.0.0.1 - - [15/Oct/2015:18:24:01 +0900] "GET /MenTomen/BoardList.bo?pageVal=2 HTTP/1.1" 200 6075
127.0.0.1 - - [15/Oct/2015:18:24:05 +0900] "GET /MenTomen/BoardWrite.bo?pageVal=2 HTTP/1.1" 200 3356
127.0.0.1 - - [15/Oct/2015:18:24:06 +0900] "GET /MenTomen/se2/SmartEditor2Skin.html HTTP/1.1" 200 100529
127.0.0.1 - - [15/Oct/2015:18:24:06 +0900] "GET /MenTomen/se2/photo_uploader/plugin/hp_SE2M_AttachQuickPhoto.js HTTP/1.1" 304 -
127.0.0.1 - - [15/Oct/2015:18:24:06 +0900] "GET /MenTomen/se2/img/ko_KR/btn_set.png?130306 HTTP/1.1" 200 1469116
127.0.0.1 - - [15/Oct/2015:18:24:06 +0900] "GET /MenTomen/se2/img/ko_KR/text_tool_set.png?140317 HTTP/1.1" 200 11403
127.0.0.1 - - [15/Oct/2015:18:24:06 +0900] "GET /MenTomen/se2/img/bg_text_tool.gif HTTP/1.1" 200 1123
127.0.0.1 - - [15/Oct/2015:18:24:06 +0900] "GET /MenTomen/se2/img/icon_set.gif HTTP/1.1" 200 4611
127.0.0.1 - - [15/Oct/2015:18:24:07 +0900] "GET /MenTomen/se2/smart_editor2_inputarea.html HTTP/1.1" 200 318
127.0.0.1 - - [15/Oct/2015:18:24:07 +0900] "GET /MenTomen/se2/img/bg_button_left.gif?20121228 HTTP/1.1" 200 331
127.0.0.1 - - [15/Oct/2015:18:24:07 +0900] "GET /MenTomen/se2/img/bg_button.gif?20121228 HTTP/1.1" 200 526
127.0.0.1 - - [15/Oct/2015:18:24:07 +0900] "GET /MenTomen/se2/img/bg_button_right.gif HTTP/1.1" 200 1240
127.0.0.1 - - [15/Oct/2015:18:24:07 +0900] "GET /MenTomen/se2/img/ico_extend.png HTTP/1.1" 200 270
127.0.0.1 - - [15/Oct/2015:18:24:10 +0900] "POST /MenTomen/BoardAddAction.bo HTTP/1.1" 302 -
127.0.0.1 - - [15/Oct/2015:18:24:10 +0900] "GET /MenTomen/BoardList.bo?pageVal=2 HTTP/1.1" 200 6076
127.0.0.1 - - [15/Oct/2015:18:24:13 +0900] "GET /MenTomen/BoardDetailAction.bo?pageVal=2&num=36&page=1 HTTP/1.1" 200 4897
127.0.0.1 - - [15/Oct/2015:18:24:16 +0900] "GET /MenTomen/BoardReplyView.bo?num=36&page=1 HTTP/1.1" 200 3605
127.0.0.1 - - [15/Oct/2015:18:24:19 +0900] "POST /MenTomen/BoardReplyAction.bo HTTP/1.1" 200 4896
127.0.0.1 - - [15/Oct/2015:18:24:21 +0900] "GET /MenTomen/BoardList.bo?pageVal=2&page=1 HTTP/1.1" 200 6076
127.0.0.1 - - [15/Oct/2015:18:26:09 +0900] "GET /MenTomen/BoardList.bo?pageVal=2&page=1 HTTP/1.1" 200 6076
127.0.0.1 - - [15/Oct/2015:18:26:09 +0900] "GET /MenTomen/css/qna_board.css HTTP/1.1" 304 -
127.0.0.1 - - [15/Oct/2015:18:26:31 +0900] "GET /MenTomen/BoardList.bo?pageVal=2&page=1 HTTP/1.1" 200 6076
127.0.0.1 - - [15/Oct/2015:18:26:31 +0900] "GET /MenTomen/css/qna_board.css HTTP/1.1" 304 -
127.0.0.1 - - [15/Oct/2015:18:28:27 +0900] "GET /MenTomen/BoardWrite.bo?pageVal=2 HTTP/1.1" 200 3356
127.0.0.1 - - [15/Oct/2015:18:28:31 +0900] "POST /MenTomen/BoardAddAction.bo HTTP/1.1" 302 -
127.0.0.1 - - [15/Oct/2015:18:28:31 +0900] "GET /MenTomen/BoardList.bo?pageVal=2 HTTP/1.1" 200 5955
127.0.0.1 - - [15/Oct/2015:18:28:33 +0900] "GET /MenTomen/BoardDetailAction.bo?pageVal=2&num=38&page=1 HTTP/1.1" 200 4896
127.0.0.1 - - [15/Oct/2015:18:28:34 +0900] "GET /MenTomen/BoardReplyView.bo?num=38&page=1 HTTP/1.1" 200 3605
127.0.0.1 - - [15/Oct/2015:18:28:38 +0900] "POST /MenTomen/BoardReplyAction.bo HTTP/1.1" 200 4900
127.0.0.1 - - [15/Oct/2015:18:28:40 +0900] "GET /MenTomen/BoardList.bo?pageVal=2&page=1 HTTP/1.1" 200 5957
127.0.0.1 - - [15/Oct/2015:18:30:20 +0900] "GET /MenTomen/BoardList.bo?pageVal=2&page=1 HTTP/1.1" 200 5957
127.0.0.1 - - [15/Oct/2015:18:30:20 +0900] "GET /MenTomen/css/qna_board.css HTTP/1.1" 304 -
127.0.0.1 - - [15/Oct/2015:18:30:24 +0900] "GET /MenTomen/BoardWrite.bo?pageVal=2 HTTP/1.1" 200 3356
127.0.0.1 - - [15/Oct/2015:18:30:27 +0900] "POST /MenTomen/BoardAddAction.bo HTTP/1.1" 302 -
127.0.0.1 - - [15/Oct/2015:18:30:27 +0900] "GET /MenTomen/BoardList.bo?pageVal=2 HTTP/1.1" 200 5641
127.0.0.1 - - [15/Oct/2015:18:30:32 +0900] "GET /MenTomen/BoardList.bo?pageVal=2&page=4 HTTP/1.1" 200 4915
127.0.0.1 - - [15/Oct/2015:18:30:32 +0900] "GET /MenTomen/BoardList.bo?pageVal=2&page=3 HTTP/1.1" 200 5583
127.0.0.1 - - [15/Oct/2015:18:30:33 +0900] "GET /MenTomen/BoardList.bo?pageVal=2&page=2 HTTP/1.1" 200 6160
127.0.0.1 - - [15/Oct/2015:18:30:34 +0900] "GET /MenTomen/BoardList.bo?pageVal=2&page=1 HTTP/1.1" 200 5641
127.0.0.1 - - [15/Oct/2015:18:30:35 +0900] "GET /MenTomen/BoardList.bo?pageVal=2&page=1 HTTP/1.1" 200 5641
127.0.0.1 - - [15/Oct/2015:18:30:35 +0900] "GET /MenTomen/css/qna_board.css HTTP/1.1" 304 -
127.0.0.1 - - [15/Oct/2015:18:30:36 +0900] "GET /MenTomen/BoardList.bo?pageVal=2&page=1 HTTP/1.1" 200 5641
127.0.0.1 - - [15/Oct/2015:18:30:36 +0900] "GET /MenTomen/css/qna_board.css HTTP/1.1" 304 -
127.0.0.1 - - [15/Oct/2015:18:30:36 +0900] "GET /MenTomen/BoardList.bo?pageVal=2&page=1 HTTP/1.1" 200 5641
127.0.0.1 - - [15/Oct/2015:18:30:36 +0900] "GET /MenTomen/css/qna_board.css HTTP/1.1" 304 -
127.0.0.1 - - [15/Oct/2015:18:30:49 +0900] "GET /MenTomen/BoardList.bo?pageVal=2&page=1 HTTP/1.1" 200 5959
127.0.0.1 - - [15/Oct/2015:18:30:49 +0900] "GET /MenTomen/css/qna_board.css HTTP/1.1" 304 -
127.0.0.1 - - [15/Oct/2015:18:33:16 +0900] "GET /MenTomen/BoardList.bo?pageVal=2&page=1 HTTP/1.1" 200 5959
127.0.0.1 - - [15/Oct/2015:18:33:16 +0900] "GET /MenTomen/css/qna_board.css HTTP/1.1" 304 -
127.0.0.1 - - [15/Oct/2015:18:33:17 +0900] "GET /MenTomen/BoardList.bo?pageVal=2&page=1 HTTP/1.1" 200 5959
127.0.0.1 - - [15/Oct/2015:18:33:17 +0900] "GET /MenTomen/css/qna_board.css HTTP/1.1" 304 -
127.0.0.1 - - [15/Oct/2015:18:34:12 +0900] "GET /MenTomen/BoardList.bo?pageVal=2&page=1 HTTP/1.1" 500 3128
127.0.0.1 - - [15/Oct/2015:18:34:13 +0900] "GET /MenTomen/BoardList.bo?pageVal=2&page=1 HTTP/1.1" 500 3128
127.0.0.1 - - [15/Oct/2015:18:34:50 +0900] "GET /MenTomen/BoardList.bo?pageVal=2&page=1 HTTP/1.1" 500 3128
127.0.0.1 - - [15/Oct/2015:18:34:51 +0900] "GET /MenTomen/BoardList.bo?pageVal=2&page=1 HTTP/1.1" 500 3128
127.0.0.1 - - [15/Oct/2015:18:34:52 +0900] "GET /MenTomen/BoardList.bo?pageVal=2&page=1 HTTP/1.1" 500 3128
127.0.0.1 - - [15/Oct/2015:18:34:52 +0900] "GET /MenTomen/BoardList.bo?pageVal=2&page=1 HTTP/1.1" 500 3128
127.0.0.1 - - [15/Oct/2015:18:34:52 +0900] "GET /MenTomen/BoardList.bo?pageVal=2&page=1 HTTP/1.1" 500 3128
127.0.0.1 - - [15/Oct/2015:18:34:52 +0900] "GET /MenTomen/BoardList.bo?pageVal=2&page=1 HTTP/1.1" 500 3128
127.0.0.1 - - [15/Oct/2015:18:34:52 +0900] "GET /MenTomen/BoardList.bo?pageVal=2&page=1 HTTP/1.1" 500 3128
127.0.0.1 - - [15/Oct/2015:18:34:53 +0900] "GET /MenTomen/BoardList.bo?pageVal=2&page=1 HTTP/1.1" 500 3128
127.0.0.1 - - [15/Oct/2015:18:38:48 +0900] "GET /MenTomen/BoardList.bo?pageVal=2&page=1 HTTP/1.1" 500 3128
127.0.0.1 - - [15/Oct/2015:18:45:24 +0900] "GET /MenTomen/BoardList.bo?pageVal=2&page=1 HTTP/1.1" 500 3128
127.0.0.1 - - [15/Oct/2015:18:45:26 +0900] "GET /MenTomen/BoardList.bo?pageVal=2&page=1 HTTP/1.1" 500 3128
127.0.0.1 - - [15/Oct/2015:18:45:28 +0900] "GET /MenTomen/BoardList.bo?pageVal=2&page=1 HTTP/1.1" 500 3128
127.0.0.1 - - [15/Oct/2015:18:45:29 +0900] "GET /MenTomen/BoardList.bo?pageVal=2&page=1 HTTP/1.1" 500 3128
127.0.0.1 - - [15/Oct/2015:18:45:30 +0900] "GET /MenTomen/BoardList.bo?pageVal=2&page=1 HTTP/1.1" 500 3128
127.0.0.1 - - [15/Oct/2015:18:45:30 +0900] "GET /MenTomen/BoardList.bo?pageVal=2&page=1 HTTP/1.1" 500 3128
127.0.0.1 - - [15/Oct/2015:18:45:30 +0900] "GET /MenTomen/BoardList.bo?pageVal=2&page=1 HTTP/1.1" 500 3128
127.0.0.1 - - [15/Oct/2015:18:45:30 +0900] "GET /MenTomen/BoardList.bo?pageVal=2&page=1 HTTP/1.1" 500 3128
127.0.0.1 - - [15/Oct/2015:18:45:31 +0900] "GET /MenTomen/BoardList.bo?pageVal=2&page=1 HTTP/1.1" 500 3128
127.0.0.1 - - [15/Oct/2015:18:45:31 +0900] "GET /MenTomen/BoardList.bo?pageVal=2&page=1 HTTP/1.1" 500 3128
127.0.0.1 - - [15/Oct/2015:18:45:31 +0900] "GET /MenTomen/BoardList.bo?pageVal=2&page=1 HTTP/1.1" 500 3128
127.0.0.1 - - [15/Oct/2015:18:45:31 +0900] "GET /MenTomen/BoardList.bo?pageVal=2&page=1 HTTP/1.1" 500 3128
127.0.0.1 - - [15/Oct/2015:18:45:32 +0900] "GET /MenTomen/BoardList.bo?pageVal=2&page=1 HTTP/1.1" 500 3128
127.0.0.1 - - [15/Oct/2015:18:45:34 +0900] "GET /MenTomen/BoardList.bo?pageVal=2&page=1 HTTP/1.1" 200 5959
127.0.0.1 - - [15/Oct/2015:18:45:34 +0900] "GET /MenTomen/css/qna_board.css HTTP/1.1" 304 -
127.0.0.1 - - [15/Oct/2015:18:52:41 +0900] "GET /MenTomen/BoardList.bo?pageVal=2&page=1 HTTP/1.1" 500 3128
127.0.0.1 - - [15/Oct/2015:18:52:41 +0900] "GET /MenTomen/BoardList.bo?pageVal=2&page=1 HTTP/1.1" 500 3128
127.0.0.1 - - [15/Oct/2015:18:52:42 +0900] "GET /MenTomen/BoardList.bo?pageVal=2&page=1 HTTP/1.1" 500 3128
127.0.0.1 - - [15/Oct/2015:18:54:24 +0900] "GET /MenTomen/BoardList.bo?pageVal=2&page=1 HTTP/1.1" 500 3128
127.0.0.1 - - [15/Oct/2015:18:54:25 +0900] "GET /MenTomen/BoardList.bo?pageVal=2&page=1 HTTP/1.1" 500 3128
127.0.0.1 - - [15/Oct/2015:18:54:26 +0900] "GET /MenTomen/BoardList.bo?pageVal=2&page=1 HTTP/1.1" 500 3128
127.0.0.1 - - [15/Oct/2015:18:54:30 +0900] "GET /MenTomen/BoardList.bo?pageVal=2&page=1 HTTP/1.1" 500 3128
127.0.0.1 - - [15/Oct/2015:18:54:39 +0900] "GET /MenTomen/BoardList.bo?pageVal=2&page=1 HTTP/1.1" 500 3128
127.0.0.1 - - [15/Oct/2015:18:54:40 +0900] "GET /MenTomen/BoardList.bo?pageVal=2&page=1 HTTP/1.1" 500 3128
127.0.0.1 - - [15/Oct/2015:18:54:40 +0900] "GET /MenTomen/BoardList.bo?pageVal=2&page=1 HTTP/1.1" 500 3128
127.0.0.1 - - [15/Oct/2015:18:54:40 +0900] "GET /MenTomen/BoardList.bo?pageVal=2&page=1 HTTP/1.1" 500 3128
127.0.0.1 - - [15/Oct/2015:18:54:40 +0900] "GET /MenTomen/BoardList.bo?pageVal=2&page=1 HTTP/1.1" 500 3128
127.0.0.1 - - [15/Oct/2015:18:54:41 +0900] "GET /MenTomen/BoardList.bo?pageVal=2&page=1 HTTP/1.1" 500 3128
127.0.0.1 - - [15/Oct/2015:18:54:41 +0900] "GET /MenTomen/BoardList.bo?pageVal=2&page=1 HTTP/1.1" 500 3128
127.0.0.1 - - [15/Oct/2015:18:54:42 +0900] "GET /MenTomen/BoardList.bo?pageVal=2&page=1 HTTP/1.1" 500 3128
127.0.0.1 - - [15/Oct/2015:18:55:01 +0900] "GET /MenTomen/BoardList.bo?pageVal=2&page=1 HTTP/1.1" 500 3128
127.0.0.1 - - [15/Oct/2015:18:55:02 +0900] "GET /MenTomen/BoardList.bo?pageVal=2&page=1 HTTP/1.1" 500 3128
127.0.0.1 - - [15/Oct/2015:18:55:02 +0900] "GET /MenTomen/BoardList.bo?pageVal=2&page=1 HTTP/1.1" 500 3128
127.0.0.1 - - [15/Oct/2015:18:55:03 +0900] "GET /MenTomen/BoardList.bo?pageVal=2&page=1 HTTP/1.1" 500 3128
127.0.0.1 - - [15/Oct/2015:18:55:03 +0900] "GET /MenTomen/BoardList.bo?pageVal=2&page=1 HTTP/1.1" 500 3128
127.0.0.1 - - [15/Oct/2015:18:55:03 +0900] "GET /MenTomen/BoardList.bo?pageVal=2&page=1 HTTP/1.1" 500 3128
127.0.0.1 - - [15/Oct/2015:18:55:04 +0900] "GET /MenTomen/BoardList.bo?pageVal=2&page=1 HTTP/1.1" 500 3128
127.0.0.1 - - [15/Oct/2015:18:55:04 +0900] "GET /MenTomen/BoardList.bo?pageVal=2&page=1 HTTP/1.1" 500 3128
127.0.0.1 - - [15/Oct/2015:18:55:04 +0900] "GET /MenTomen/BoardList.bo?pageVal=2&page=1 HTTP/1.1" 500 3128
127.0.0.1 - - [15/Oct/2015:18:55:05 +0900] "GET /MenTomen/BoardList.bo?pageVal=2&page=1 HTTP/1.1" 500 3128
127.0.0.1 - - [15/Oct/2015:18:55:05 +0900] "GET /MenTomen/BoardList.bo?pageVal=2&page=1 HTTP/1.1" 500 3128
127.0.0.1 - - [15/Oct/2015:18:55:05 +0900] "GET /MenTomen/BoardList.bo?pageVal=2&page=1 HTTP/1.1" 500 3128
127.0.0.1 - - [15/Oct/2015:18:55:05 +0900] "GET /MenTomen/BoardList.bo?pageVal=2&page=1 HTTP/1.1" 500 3128
127.0.0.1 - - [15/Oct/2015:18:55:05 +0900] "GET /MenTomen/BoardList.bo?pageVal=2&page=1 HTTP/1.1" 500 3128
127.0.0.1 - - [15/Oct/2015:18:55:06 +0900] "GET /MenTomen/BoardList.bo?pageVal=2&page=1 HTTP/1.1" 500 3128
127.0.0.1 - - [15/Oct/2015:18:55:06 +0900] "GET /MenTomen/BoardList.bo?pageVal=2&page=1 HTTP/1.1" 500 3128
127.0.0.1 - - [15/Oct/2015:18:55:06 +0900] "GET /MenTomen/BoardList.bo?pageVal=2&page=1 HTTP/1.1" 500 3128
127.0.0.1 - - [15/Oct/2015:18:55:06 +0900] "GET /MenTomen/BoardList.bo?pageVal=2&page=1 HTTP/1.1" 500 3128
127.0.0.1 - - [15/Oct/2015:18:55:07 +0900] "GET /MenTomen/BoardList.bo?pageVal=2&page=1 HTTP/1.1" 500 3128
127.0.0.1 - - [15/Oct/2015:18:55:07 +0900] "GET /MenTomen/BoardList.bo?pageVal=2&page=1 HTTP/1.1" 500 3128
127.0.0.1 - - [15/Oct/2015:18:55:07 +0900] "GET /MenTomen/BoardList.bo?pageVal=2&page=1 HTTP/1.1" 500 3128
127.0.0.1 - - [15/Oct/2015:18:55:07 +0900] "GET /MenTomen/BoardList.bo?pageVal=2&page=1 HTTP/1.1" 500 3128
127.0.0.1 - - [15/Oct/2015:18:55:07 +0900] "GET /MenTomen/BoardList.bo?pageVal=2&page=1 HTTP/1.1" 500 3128
127.0.0.1 - - [15/Oct/2015:18:55:08 +0900] "GET /MenTomen/BoardList.bo?pageVal=2&page=1 HTTP/1.1" 500 3128
127.0.0.1 - - [15/Oct/2015:18:55:08 +0900] "GET /MenTomen/BoardList.bo?pageVal=2&page=1 HTTP/1.1" 500 3128
127.0.0.1 - - [15/Oct/2015:18:55:08 +0900] "GET /MenTomen/BoardList.bo?pageVal=2&page=1 HTTP/1.1" 500 3128
127.0.0.1 - - [15/Oct/2015:18:55:08 +0900] "GET /MenTomen/BoardList.bo?pageVal=2&page=1 HTTP/1.1" 500 3128
127.0.0.1 - - [15/Oct/2015:18:55:09 +0900] "GET /MenTomen/BoardList.bo?pageVal=2&page=1 HTTP/1.1" 500 3128
127.0.0.1 - - [15/Oct/2015:18:55:09 +0900] "GET /MenTomen/BoardList.bo?pageVal=2&page=1 HTTP/1.1" 500 3128
127.0.0.1 - - [15/Oct/2015:18:55:09 +0900] "GET /MenTomen/BoardList.bo?pageVal=2&page=1 HTTP/1.1" 500 3128
127.0.0.1 - - [15/Oct/2015:18:55:09 +0900] "GET /MenTomen/BoardList.bo?pageVal=2&page=1 HTTP/1.1" 500 3128
127.0.0.1 - - [15/Oct/2015:18:55:09 +0900] "GET /MenTomen/BoardList.bo?pageVal=2&page=1 HTTP/1.1" 500 3128
127.0.0.1 - - [15/Oct/2015:18:55:10 +0900] "GET /MenTomen/BoardList.bo?pageVal=2&page=1 HTTP/1.1" 500 3128
127.0.0.1 - - [15/Oct/2015:18:55:10 +0900] "GET /MenTomen/BoardList.bo?pageVal=2&page=1 HTTP/1.1" 500 3128
127.0.0.1 - - [15/Oct/2015:18:55:10 +0900] "GET /MenTomen/BoardList.bo?pageVal=2&page=1 HTTP/1.1" 500 3128
127.0.0.1 - - [15/Oct/2015:18:55:10 +0900] "GET /MenTomen/BoardList.bo?pageVal=2&page=1 HTTP/1.1" 500 3128
127.0.0.1 - - [15/Oct/2015:18:55:10 +0900] "GET /MenTomen/BoardList.bo?pageVal=2&page=1 HTTP/1.1" 500 3128
127.0.0.1 - - [15/Oct/2015:18:55:11 +0900] "GET /MenTomen/BoardList.bo?pageVal=2&page=1 HTTP/1.1" 500 3128
127.0.0.1 - - [15/Oct/2015:18:55:11 +0900] "GET /MenTomen/BoardList.bo?pageVal=2&page=1 HTTP/1.1" 500 3128
127.0.0.1 - - [15/Oct/2015:18:55:11 +0900] "GET /MenTomen/BoardList.bo?pageVal=2&page=1 HTTP/1.1" 500 3128
127.0.0.1 - - [15/Oct/2015:18:55:11 +0900] "GET /MenTomen/BoardList.bo?pageVal=2&page=1 HTTP/1.1" 500 3128
127.0.0.1 - - [15/Oct/2015:18:55:11 +0900] "GET /MenTomen/BoardList.bo?pageVal=2&page=1 HTTP/1.1" 500 3128
127.0.0.1 - - [15/Oct/2015:18:55:12 +0900] "GET /MenTomen/BoardList.bo?pageVal=2&page=1 HTTP/1.1" 500 3128
127.0.0.1 - - [15/Oct/2015:18:55:12 +0900] "GET /MenTomen/BoardList.bo?pageVal=2&page=1 HTTP/1.1" 500 3128
127.0.0.1 - - [15/Oct/2015:18:55:12 +0900] "GET /MenTomen/BoardList.bo?pageVal=2&page=1 HTTP/1.1" 500 3128
127.0.0.1 - - [15/Oct/2015:18:55:12 +0900] "GET /MenTomen/BoardList.bo?pageVal=2&page=1 HTTP/1.1" 500 3128
127.0.0.1 - - [15/Oct/2015:18:59:23 +0900] "GET /MenTomen/BoardList.bo?pageVal=2&page=1 HTTP/1.1" 200 5959
127.0.0.1 - - [15/Oct/2015:18:59:23 +0900] "GET /MenTomen/css/qna_board.css HTTP/1.1" 304 -
127.0.0.1 - - [15/Oct/2015:19:03:17 +0900] "GET /MenTomen/BoardList.bo?pageVal=2&page=1 HTTP/1.1" 200 5959
127.0.0.1 - - [15/Oct/2015:19:03:17 +0900] "GET /MenTomen/css/qna_board.css HTTP/1.1" 304 -
127.0.0.1 - - [15/Oct/2015:19:03:18 +0900] "GET /MenTomen/BoardList.bo?pageVal=2&page=1 HTTP/1.1" 200 5959
127.0.0.1 - - [15/Oct/2015:19:03:18 +0900] "GET /MenTomen/css/qna_board.css HTTP/1.1" 304 -
127.0.0.1 - - [15/Oct/2015:19:03:30 +0900] "GET /MenTomen/BoardDetailAction.bo?pageVal=2&num=40&page=1 HTTP/1.1" 200 4897
127.0.0.1 - - [15/Oct/2015:19:03:31 +0900] "GET /MenTomen/BoardReplyView.bo?num=40&page=1 HTTP/1.1" 200 3605
127.0.0.1 - - [15/Oct/2015:19:03:31 +0900] "GET /MenTomen/se2/img/bg_text_tool.gif HTTP/1.1" 200 1123
127.0.0.1 - - [15/Oct/2015:19:03:31 +0900] "GET /MenTomen/se2/img/bg_button.gif?20121228 HTTP/1.1" 200 526
127.0.0.1 - - [15/Oct/2015:19:03:31 +0900] "GET /MenTomen/se2/img/bg_button_right.gif HTTP/1.1" 200 1240
127.0.0.1 - - [15/Oct/2015:19:03:32 +0900] "GET /MenTomen/se2/img/bg_button_left.gif?20121228 HTTP/1.1" 200 331
127.0.0.1 - - [15/Oct/2015:19:03:32 +0900] "GET /MenTomen/se2/img/ico_extend.png HTTP/1.1" 200 270
127.0.0.1 - - [15/Oct/2015:19:03:34 +0900] "POST /MenTomen/BoardReplyAction.bo HTTP/1.1" 200 4897
127.0.0.1 - - [15/Oct/2015:19:03:36 +0900] "GET /MenTomen/BoardList.bo?pageVal=2&page=1 HTTP/1.1" 200 5961
127.0.0.1 - - [15/Oct/2015:19:04:54 +0900] "GET /MenTomen/BoardList.bo?pageVal=2&page=1 HTTP/1.1" 200 5961
127.0.0.1 - - [15/Oct/2015:19:04:54 +0900] "GET /MenTomen/css/qna_board.css HTTP/1.1" 304 -
127.0.0.1 - - [15/Oct/2015:19:04:55 +0900] "GET /MenTomen/BoardList.bo?pageVal=2&page=1 HTTP/1.1" 200 5961
127.0.0.1 - - [15/Oct/2015:19:04:55 +0900] "GET /MenTomen/css/qna_board.css HTTP/1.1" 304 -
127.0.0.1 - - [15/Oct/2015:19:04:56 +0900] "GET /MenTomen/BoardList.bo?pageVal=2&page=1 HTTP/1.1" 200 5961
127.0.0.1 - - [15/Oct/2015:19:04:57 +0900] "GET /MenTomen/css/qna_board.css HTTP/1.1" 304 -
127.0.0.1 - - [15/Oct/2015:19:04:58 +0900] "GET /MenTomen/BoardList.bo?pageVal=2&page=1 HTTP/1.1" 200 5961
127.0.0.1 - - [15/Oct/2015:19:04:58 +0900] "GET /MenTomen/css/qna_board.css HTTP/1.1" 304 -
127.0.0.1 - - [15/Oct/2015:19:05:18 +0900] "GET /MenTomen/BoardList.bo?pageVal=2&page=1 HTTP/1.1" 200 5961
127.0.0.1 - - [15/Oct/2015:19:05:18 +0900] "GET /MenTomen/css/qna_board.css HTTP/1.1" 304 -
127.0.0.1 - - [15/Oct/2015:19:05:40 +0900] "GET /MenTomen/BoardList.bo?pageVal=2&page=1 HTTP/1.1" 200 5961
127.0.0.1 - - [15/Oct/2015:19:05:40 +0900] "GET /MenTomen/css/qna_board.css HTTP/1.1" 304 -
127.0.0.1 - - [15/Oct/2015:19:05:41 +0900] "GET /MenTomen/BoardList.bo?pageVal=2&page=1 HTTP/1.1" 200 5961
127.0.0.1 - - [15/Oct/2015:19:05:41 +0900] "GET /MenTomen/css/qna_board.css HTTP/1.1" 304 -
127.0.0.1 - - [15/Oct/2015:19:05:41 +0900] "GET /MenTomen/BoardList.bo?pageVal=2&page=1 HTTP/1.1" 200 5961
127.0.0.1 - - [15/Oct/2015:19:05:41 +0900] "GET /MenTomen/css/qna_board.css HTTP/1.1" 304 -
127.0.0.1 - - [15/Oct/2015:19:05:42 +0900] "GET /MenTomen/BoardList.bo?pageVal=2&page=1 HTTP/1.1" 200 5961
127.0.0.1 - - [15/Oct/2015:19:05:42 +0900] "GET /MenTomen/css/qna_board.css HTTP/1.1" 304 -
127.0.0.1 - - [15/Oct/2015:19:05:57 +0900] "GET /MenTomen/BoardList.bo?pageVal=2&page=1 HTTP/1.1" 200 5961
127.0.0.1 - - [15/Oct/2015:19:05:57 +0900] "GET /MenTomen/css/qna_board.css HTTP/1.1" 304 -
127.0.0.1 - - [15/Oct/2015:19:05:58 +0900] "GET /MenTomen/BoardList.bo?pageVal=2&page=1 HTTP/1.1" 200 5961
127.0.0.1 - - [15/Oct/2015:19:05:58 +0900] "GET /MenTomen/css/qna_board.css HTTP/1.1" 304 -
127.0.0.1 - - [15/Oct/2015:19:06:00 +0900] "GET /MenTomen/BoardList.bo?pageVal=2&page=1 HTTP/1.1" 200 5961
127.0.0.1 - - [15/Oct/2015:19:06:00 +0900] "GET /MenTomen/css/qna_board.css HTTP/1.1" 304 -
127.0.0.1 - - [15/Oct/2015:19:06:02 +0900] "GET /MenTomen/BoardList.bo?pageVal=2&page=1 HTTP/1.1" 200 5961
127.0.0.1 - - [15/Oct/2015:19:06:02 +0900] "GET /MenTomen/css/qna_board.css HTTP/1.1" 304 -
127.0.0.1 - - [15/Oct/2015:19:06:47 +0900] "GET /MenTomen/BoardList.bo?pageVal=2&page=1 HTTP/1.1" 200 5961
127.0.0.1 - - [15/Oct/2015:19:06:47 +0900] "GET /MenTomen/css/qna_board.css HTTP/1.1" 304 -
127.0.0.1 - - [15/Oct/2015:19:06:50 +0900] "GET /MenTomen/BoardList.bo?pageVal=2&page=1 HTTP/1.1" 200 5961
127.0.0.1 - - [15/Oct/2015:19:06:50 +0900] "GET /MenTomen/css/qna_board.css HTTP/1.1" 304 -
127.0.0.1 - - [15/Oct/2015:19:06:51 +0900] "GET /MenTomen/BoardList.bo?pageVal=2&page=4 HTTP/1.1" 200 5215
127.0.0.1 - - [15/Oct/2015:19:06:52 +0900] "GET /MenTomen/BoardList.bo?pageVal=2&page=2 HTTP/1.1" 200 5916
127.0.0.1 - - [15/Oct/2015:19:06:52 +0900] "GET /MenTomen/BoardList.bo?pageVal=2&page=1 HTTP/1.1" 200 5961
127.0.0.1 - - [15/Oct/2015:19:06:58 +0900] "GET /MenTomen/BoardDetailAction.bo?pageVal=2&num=40&page=1 HTTP/1.1" 200 4897
127.0.0.1 - - [15/Oct/2015:19:07:01 +0900] "GET /MenTomen/BoardList.bo?pageVal=2&page=1 HTTP/1.1" 200 5961
127.0.0.1 - - [15/Oct/2015:19:07:15 +0900] "GET /MenTomen/BoardList.bo?pageVal=2&page=1 HTTP/1.1" 200 5961
127.0.0.1 - - [15/Oct/2015:19:07:15 +0900] "GET /MenTomen/css/qna_board.css HTTP/1.1" 304 -
127.0.0.1 - - [15/Oct/2015:23:07:45 +0900] "GET /MenTomen/BoardList.bo?pageVal=2&page=1 HTTP/1.1" 200 5961
127.0.0.1 - - [15/Oct/2015:23:07:46 +0900] "GET /MenTomen/css/qna_board.css HTTP/1.1" 304 -
127.0.0.1 - - [15/Oct/2015:23:09:57 +0900] "GET /MenTomen/BoardList.bo?pageVal=2&page=1 HTTP/1.1" 200 5961
127.0.0.1 - - [15/Oct/2015:23:09:58 +0900] "GET /MenTomen/css/qna_board.css HTTP/1.1" 304 -
127.0.0.1 - - [15/Oct/2015:23:10:14 +0900] "GET /MenTomen/BoardList.bo?pageVal=2&page=1 HTTP/1.1" 200 5961
127.0.0.1 - - [15/Oct/2015:23:10:14 +0900] "GET /MenTomen/css/qna_board.css HTTP/1.1" 304 -
127.0.0.1 - - [15/Oct/2015:23:10:28 +0900] "GET /MenTomen/BoardList.bo?pageVal=2&page=1 HTTP/1.1" 200 5961
127.0.0.1 - - [15/Oct/2015:23:10:28 +0900] "GET /MenTomen/css/qna_board.css HTTP/1.1" 304 -
127.0.0.1 - - [15/Oct/2015:23:11:46 +0900] "GET /MenTomen/BoardList.bo?pageVal=2&page=1 HTTP/1.1" 200 5961
127.0.0.1 - - [15/Oct/2015:23:11:46 +0900] "GET /MenTomen/css/qna_board.css HTTP/1.1" 304 -
127.0.0.1 - - [15/Oct/2015:23:12:06 +0900] "GET /MenTomen/BoardList.bo?pageVal=2&page=1 HTTP/1.1" 200 5961
127.0.0.1 - - [15/Oct/2015:23:12:06 +0900] "GET /MenTomen/css/qna_board.css HTTP/1.1" 304 -
127.0.0.1 - - [15/Oct/2015:23:12:11 +0900] "GET /MenTomen/BoardList.bo?pageVal=2&page=1 HTTP/1.1" 200 5961
127.0.0.1 - - [15/Oct/2015:23:12:12 +0900] "GET /MenTomen/css/qna_board.css HTTP/1.1" 304 -
127.0.0.1 - - [15/Oct/2015:23:12:19 +0900] "GET /MenTomen/BoardList.bo?pageVal=2&page=1 HTTP/1.1" 200 5961
127.0.0.1 - - [15/Oct/2015:23:12:19 +0900] "GET /MenTomen/css/qna_board.css HTTP/1.1" 304 -
127.0.0.1 - - [15/Oct/2015:23:12:24 +0900] "GET /MenTomen/BoardList.bo?pageVal=2&page=1 HTTP/1.1" 200 5961
127.0.0.1 - - [15/Oct/2015:23:12:24 +0900] "GET /MenTomen/css/qna_board.css HTTP/1.1" 304 -
127.0.0.1 - - [15/Oct/2015:23:13:17 +0900] "GET /MenTomen/BoardList.bo?pageVal=2&page=1 HTTP/1.1" 200 5961
127.0.0.1 - - [15/Oct/2015:23:13:17 +0900] "GET /MenTomen/css/qna_board.css HTTP/1.1" 304 -
127.0.0.1 - - [15/Oct/2015:23:13:50 +0900] "GET /MenTomen/BoardList.bo?pageVal=2&page=1 HTTP/1.1" 200 5961
127.0.0.1 - - [15/Oct/2015:23:13:50 +0900] "GET /MenTomen/css/qna_board.css HTTP/1.1" 304 -
127.0.0.1 - - [15/Oct/2015:23:13:52 +0900] "GET /MenTomen/BoardList.bo?pageVal=2&page=1 HTTP/1.1" 200 5961
127.0.0.1 - - [15/Oct/2015:23:13:52 +0900] "GET /MenTomen/css/qna_board.css HTTP/1.1" 304 -
127.0.0.1 - - [15/Oct/2015:23:14:03 +0900] "GET /MenTomen/BoardList.bo?pageVal=2&page=1 HTTP/1.1" 200 5961
127.0.0.1 - - [15/Oct/2015:23:14:03 +0900] "GET /MenTomen/css/qna_board.css HTTP/1.1" 304 -
127.0.0.1 - - [15/Oct/2015:23:14:11 +0900] "GET /MenTomen/BoardList.bo?pageVal=2&page=1 HTTP/1.1" 200 5961
127.0.0.1 - - [15/Oct/2015:23:14:11 +0900] "GET /MenTomen/css/qna_board.css HTTP/1.1" 304 -
127.0.0.1 - - [15/Oct/2015:23:14:46 +0900] "GET /MenTomen/BoardList.bo?pageVal=2&page=1 HTTP/1.1" 200 5961
127.0.0.1 - - [15/Oct/2015:23:14:46 +0900] "GET /MenTomen/css/qna_board.css HTTP/1.1" 304 -
127.0.0.1 - - [15/Oct/2015:23:15:18 +0900] "GET /MenTomen/BoardList.bo?pageVal=2&page=1 HTTP/1.1" 200 5961
127.0.0.1 - - [15/Oct/2015:23:15:18 +0900] "GET /MenTomen/css/qna_board.css HTTP/1.1" 304 -
127.0.0.1 - - [15/Oct/2015:23:15:23 +0900] "GET /MenTomen/BoardList.bo?pageVal=2&page=2 HTTP/1.1" 200 5916
127.0.0.1 - - [15/Oct/2015:23:15:25 +0900] "GET /MenTomen/BoardList.bo?pageVal=2&page=3 HTTP/1.1" 200 5578
127.0.0.1 - - [15/Oct/2015:23:15:27 +0900] "GET /MenTomen/BoardList.bo?pageVal=2&page=4 HTTP/1.1" 200 5215
127.0.0.1 - - [15/Oct/2015:23:15:30 +0900] "GET /MenTomen/BoardList.bo?pageVal=2&page=3 HTTP/1.1" 200 5578
127.0.0.1 - - [15/Oct/2015:23:15:31 +0900] "GET /MenTomen/BoardList.bo?pageVal=2&page=2 HTTP/1.1" 200 5916
127.0.0.1 - - [15/Oct/2015:23:15:32 +0900] "GET /MenTomen/BoardList.bo?pageVal=2&page=1 HTTP/1.1" 200 5961
127.0.0.1 - - [15/Oct/2015:23:15:35 +0900] "GET /MenTomen/BoardWrite.bo?pageVal=2 HTTP/1.1" 200 3356
127.0.0.1 - - [15/Oct/2015:23:15:41 +0900] "POST /MenTomen/BoardAddAction.bo HTTP/1.1" 302 -
127.0.0.1 - - [15/Oct/2015:23:15:41 +0900] "GET /MenTomen/BoardList.bo?pageVal=2 HTTP/1.1" 200 5887
127.0.0.1 - - [15/Oct/2015:23:16:22 +0900] "GET /MenTomen/BoardList.bo?pageVal=2 HTTP/1.1" 200 5887
127.0.0.1 - - [15/Oct/2015:23:16:22 +0900] "GET /MenTomen/css/qna_board.css HTTP/1.1" 304 -
127.0.0.1 - - [15/Oct/2015:23:17:15 +0900] "GET /MenTomen/BoardList.bo?pageVal=2 HTTP/1.1" 200 5887
127.0.0.1 - - [15/Oct/2015:23:17:15 +0900] "GET /MenTomen/css/qna_board.css HTTP/1.1" 304 -
127.0.0.1 - - [15/Oct/2015:23:17:39 +0900] "GET /MenTomen/BoardList.bo?pageVal=2 HTTP/1.1" 200 5887
127.0.0.1 - - [15/Oct/2015:23:17:39 +0900] "GET /MenTomen/css/qna_board.css HTTP/1.1" 304 -
127.0.0.1 - - [15/Oct/2015:23:18:02 +0900] "GET /MenTomen/BoardList.bo?pageVal=2 HTTP/1.1" 200 5887
127.0.0.1 - - [15/Oct/2015:23:18:02 +0900] "GET /MenTomen/css/qna_board.css HTTP/1.1" 304 -
127.0.0.1 - - [15/Oct/2015:23:18:05 +0900] "GET /MenTomen/BoardList.bo?pageVal=2 HTTP/1.1" 200 5887
127.0.0.1 - - [15/Oct/2015:23:18:05 +0900] "GET /MenTomen/css/qna_board.css HTTP/1.1" 304 -
127.0.0.1 - - [15/Oct/2015:23:18:22 +0900] "GET /MenTomen/BoardList.bo?pageVal=2 HTTP/1.1" 200 5887
127.0.0.1 - - [15/Oct/2015:23:18:23 +0900] "GET /MenTomen/css/qna_board.css HTTP/1.1" 304 -
127.0.0.1 - - [15/Oct/2015:23:19:26 +0900] "GET /MenTomen/BoardList.bo?pageVal=2 HTTP/1.1" 200 5887
127.0.0.1 - - [15/Oct/2015:23:19:26 +0900] "GET /MenTomen/css/qna_board.css HTTP/1.1" 304 -
127.0.0.1 - - [15/Oct/2015:23:19:49 +0900] "GET /MenTomen/BoardList.bo?pageVal=2 HTTP/1.1" 200 5887
127.0.0.1 - - [15/Oct/2015:23:19:49 +0900] "GET /MenTomen/css/qna_board.css HTTP/1.1" 304 -
127.0.0.1 - - [15/Oct/2015:23:22:05 +0900] "GET /MenTomen/BoardList.bo?pageVal=2 HTTP/1.1" 200 5887
127.0.0.1 - - [15/Oct/2015:23:22:05 +0900] "GET /MenTomen/css/qna_board.css HTTP/1.1" 304 -
127.0.0.1 - - [15/Oct/2015:23:22:53 +0900] "GET /MenTomen/BoardList.bo?pageVal=2 HTTP/1.1" 200 5887
127.0.0.1 - - [15/Oct/2015:23:22:53 +0900] "GET /MenTomen/css/qna_board.css HTTP/1.1" 304 -
127.0.0.1 - - [15/Oct/2015:23:23:18 +0900] "GET /MenTomen/BoardList.bo?pageVal=2 HTTP/1.1" 200 5887
127.0.0.1 - - [15/Oct/2015:23:23:18 +0900] "GET /MenTomen/css/qna_board.css HTTP/1.1" 304 -
127.0.0.1 - - [15/Oct/2015:23:23:39 +0900] "GET /MenTomen/BoardList.bo?pageVal=2 HTTP/1.1" 200 5887
127.0.0.1 - - [15/Oct/2015:23:23:39 +0900] "GET /MenTomen/css/qna_board.css HTTP/1.1" 304 -
127.0.0.1 - - [15/Oct/2015:23:24:11 +0900] "GET /MenTomen/BoardList.bo?pageVal=2 HTTP/1.1" 200 5887
127.0.0.1 - - [15/Oct/2015:23:24:11 +0900] "GET /MenTomen/css/qna_board.css HTTP/1.1" 304 -
127.0.0.1 - - [15/Oct/2015:23:24:34 +0900] "GET /MenTomen/BoardList.bo?pageVal=2 HTTP/1.1" 200 5887
127.0.0.1 - - [15/Oct/2015:23:24:34 +0900] "GET /MenTomen/css/qna_board.css HTTP/1.1" 304 -
