127.0.0.1 - - [16/Oct/2015:13:24:00 +0900] "GET / HTTP/1.1" 404 994
127.0.0.1 - - [16/Oct/2015:13:24:00 +0900] "GET /MenTomen/MemberIndex.me HTTP/1.1" 200 2705
127.0.0.1 - - [16/Oct/2015:13:24:01 +0900] "GET /MenTomen/img/lib.jpg HTTP/1.1" 200 7260
127.0.0.1 - - [16/Oct/2015:13:24:01 +0900] "GET /MenTomen/img/qna.png HTTP/1.1" 200 9682
127.0.0.1 - - [16/Oct/2015:13:24:01 +0900] "GET /MenTomen/img/notice.png HTTP/1.1" 200 6667
127.0.0.1 - - [16/Oct/2015:13:24:01 +0900] "GET /MenTomen/img/home.jpg HTTP/1.1" 200 22414
127.0.0.1 - - [16/Oct/2015:13:24:01 +0900] "GET /MenTomen/img/banner2.png HTTP/1.1" 200 282003
127.0.0.1 - - [16/Oct/2015:13:24:01 +0900] "GET /MenTomen/img/lec.png HTTP/1.1" 200 6345
127.0.0.1 - - [16/Oct/2015:13:24:01 +0900] "GET /MenTomen/img/mento.png HTTP/1.1" 200 237464
127.0.0.1 - - [16/Oct/2015:13:24:01 +0900] "GET /MenTomen/img/e.jpg HTTP/1.1" 200 5484
127.0.0.1 - - [16/Oct/2015:13:24:01 +0900] "GET /MenTomen/img/sw.jpg HTTP/1.1" 200 5297
127.0.0.1 - - [16/Oct/2015:13:24:13 +0900] "GET /MenTomen/BoardList.bo?pageVal=1 HTTP/1.1" 200 4423
127.0.0.1 - - [16/Oct/2015:13:24:23 +0900] "GET /MenTomen/BoardList.bo?pageVal=2 HTTP/1.1" 200 5887
127.0.0.1 - - [16/Oct/2015:13:24:25 +0900] "GET /MenTomen/BoardList.bo?pageVal=2 HTTP/1.1" 200 5887
127.0.0.1 - - [16/Oct/2015:13:24:26 +0900] "GET /MenTomen/css/qna_board.css HTTP/1.1" 304 -
127.0.0.1 - - [16/Oct/2015:13:24:40 +0900] "GET /MenTomen/BoardList.bo?pageVal=2 HTTP/1.1" 200 5887
127.0.0.1 - - [16/Oct/2015:13:24:40 +0900] "GET /MenTomen/css/qna_board.css HTTP/1.1" 304 -
127.0.0.1 - - [16/Oct/2015:13:24:43 +0900] "GET /MenTomen/BoardList.bo?pageVal=2 HTTP/1.1" 200 5887
127.0.0.1 - - [16/Oct/2015:13:24:43 +0900] "GET /MenTomen/css/qna_board.css HTTP/1.1" 304 -
127.0.0.1 - - [16/Oct/2015:13:24:56 +0900] "GET /MenTomen/BoardList.bo?pageVal=2 HTTP/1.1" 200 5887
127.0.0.1 - - [16/Oct/2015:13:24:56 +0900] "GET /MenTomen/css/qna_board.css HTTP/1.1" 304 -
