127.0.0.1 - - [14/Oct/2015:23:40:07 +0900] "GET / HTTP/1.1" 404 994
127.0.0.1 - - [14/Oct/2015:23:40:14 +0900] "GET /MenTomen/MemberIndex.me HTTP/1.1" 200 2705
127.0.0.1 - - [14/Oct/2015:23:40:14 +0900] "GET /MenTomen/img/banner2.png HTTP/1.1" 200 282003
127.0.0.1 - - [14/Oct/2015:23:40:14 +0900] "GET /MenTomen/css/index.css HTTP/1.1" 304 -
127.0.0.1 - - [14/Oct/2015:23:40:14 +0900] "GET /MenTomen/img/qna.png HTTP/1.1" 200 9682
127.0.0.1 - - [14/Oct/2015:23:40:14 +0900] "GET /MenTomen/img/lec.png HTTP/1.1" 200 6345
127.0.0.1 - - [14/Oct/2015:23:40:14 +0900] "GET /MenTomen/img/notice.png HTTP/1.1" 200 6667
127.0.0.1 - - [14/Oct/2015:23:40:14 +0900] "GET /MenTomen/img/sw.jpg HTTP/1.1" 200 5297
127.0.0.1 - - [14/Oct/2015:23:40:14 +0900] "GET /MenTomen/img/home.jpg HTTP/1.1" 200 22414
127.0.0.1 - - [14/Oct/2015:23:40:14 +0900] "GET /MenTomen/img/lib.jpg HTTP/1.1" 200 7260
127.0.0.1 - - [14/Oct/2015:23:40:14 +0900] "GET /MenTomen/img/mento.png HTTP/1.1" 200 237464
127.0.0.1 - - [14/Oct/2015:23:40:14 +0900] "GET /MenTomen/img/e.jpg HTTP/1.1" 200 5484
127.0.0.1 - - [14/Oct/2015:23:40:17 +0900] "GET /MenTomen/BoardList.bo?pageVal=1 HTTP/1.1" 200 4415
127.0.0.1 - - [14/Oct/2015:23:40:17 +0900] "GET /MenTomen/css/qna_board.css HTTP/1.1" 304 -
127.0.0.1 - - [14/Oct/2015:23:40:21 +0900] "GET /MenTomen/BoardDetailAction.bo?pageVal=1&num=28&page=1 HTTP/1.1" 200 3182
127.0.0.1 - - [14/Oct/2015:23:40:22 +0900] "GET /MenTomen/DownLoad.bo?filenameHydrangeas.jpg HTTP/1.1" 200 -
127.0.0.1 - - [14/Oct/2015:23:42:18 +0900] "GET /MenTomen/BoardList.bo?pageVal=2 HTTP/1.1" 200 6075
127.0.0.1 - - [14/Oct/2015:23:42:19 +0900] "GET /MenTomen/BoardWrite.bo?pageVal=2 HTTP/1.1" 200 3356
127.0.0.1 - - [14/Oct/2015:23:42:19 +0900] "GET /MenTomen/se2/js/HuskyEZCreator.js HTTP/1.1" 304 -
127.0.0.1 - - [14/Oct/2015:23:42:19 +0900] "GET /MenTomen/js/qna_board.js HTTP/1.1" 304 -
127.0.0.1 - - [14/Oct/2015:23:42:20 +0900] "GET /MenTomen/se2/SmartEditor2Skin.html HTTP/1.1" 200 100529
127.0.0.1 - - [14/Oct/2015:23:42:20 +0900] "GET /MenTomen/se2/css/smart_editor2.css HTTP/1.1" 304 -
127.0.0.1 - - [14/Oct/2015:23:42:20 +0900] "GET /MenTomen/se2/js/jindo.min.js HTTP/1.1" 304 -
127.0.0.1 - - [14/Oct/2015:23:42:20 +0900] "GET /MenTomen/se2/js/jindo_component.js HTTP/1.1" 304 -
127.0.0.1 - - [14/Oct/2015:23:42:20 +0900] "GET /MenTomen/se2/js/SE2B_Configuration_Service.js HTTP/1.1" 304 -
127.0.0.1 - - [14/Oct/2015:23:42:20 +0900] "GET /MenTomen/se2/js/SE2B_Configuration_General.js HTTP/1.1" 304 -
127.0.0.1 - - [14/Oct/2015:23:42:20 +0900] "GET /MenTomen/se2/js/SE2BasicCreator.js HTTP/1.1" 304 -
127.0.0.1 - - [14/Oct/2015:23:42:20 +0900] "GET /MenTomen/se2/js/smarteditor2.min.js HTTP/1.1" 304 -
127.0.0.1 - - [14/Oct/2015:23:42:20 +0900] "GET /MenTomen/se2/img/ko_KR/btn_set.png?130306 HTTP/1.1" 200 1469116
127.0.0.1 - - [14/Oct/2015:23:42:20 +0900] "GET /MenTomen/se2/img/bg_text_tool.gif HTTP/1.1" 200 1123
127.0.0.1 - - [14/Oct/2015:23:42:20 +0900] "GET /MenTomen/se2/img/ko_KR/text_tool_set.png?140317 HTTP/1.1" 200 11403
127.0.0.1 - - [14/Oct/2015:23:42:21 +0900] "GET /MenTomen/se2/img/icon_set.gif HTTP/1.1" 200 4611
127.0.0.1 - - [14/Oct/2015:23:42:21 +0900] "GET /MenTomen/se2/smart_editor2_inputarea.html HTTP/1.1" 200 318
127.0.0.1 - - [14/Oct/2015:23:42:21 +0900] "GET /MenTomen/se2/css/smart_editor2_in.css HTTP/1.1" 304 -
127.0.0.1 - - [14/Oct/2015:23:42:21 +0900] "GET /MenTomen/se2/img/bg_button_left.gif?20121228 HTTP/1.1" 200 331
127.0.0.1 - - [14/Oct/2015:23:42:21 +0900] "GET /MenTomen/se2/img/bg_button.gif?20121228 HTTP/1.1" 200 526
127.0.0.1 - - [14/Oct/2015:23:42:21 +0900] "GET /MenTomen/se2/img/bg_button_right.gif HTTP/1.1" 200 1240
127.0.0.1 - - [14/Oct/2015:23:42:21 +0900] "GET /MenTomen/se2/img/ico_extend.png HTTP/1.1" 200 270
127.0.0.1 - - [14/Oct/2015:23:43:35 +0900] "GET /MenTomen/MemberIndex.me HTTP/1.1" 200 2705
127.0.0.1 - - [14/Oct/2015:23:43:35 +0900] "GET /MenTomen/css/index.css HTTP/1.1" 304 -
127.0.0.1 - - [14/Oct/2015:23:43:35 +0900] "GET /MenTomen/img/banner2.png HTTP/1.1" 304 -
127.0.0.1 - - [14/Oct/2015:23:43:35 +0900] "GET /MenTomen/img/lec.png HTTP/1.1" 304 -
127.0.0.1 - - [14/Oct/2015:23:43:35 +0900] "GET /MenTomen/img/notice.png HTTP/1.1" 304 -
127.0.0.1 - - [14/Oct/2015:23:43:35 +0900] "GET /MenTomen/img/qna.png HTTP/1.1" 304 -
127.0.0.1 - - [14/Oct/2015:23:43:35 +0900] "GET /MenTomen/img/home.jpg HTTP/1.1" 304 -
127.0.0.1 - - [14/Oct/2015:23:43:35 +0900] "GET /MenTomen/img/lib.jpg HTTP/1.1" 304 -
127.0.0.1 - - [14/Oct/2015:23:43:35 +0900] "GET /MenTomen/img/e.jpg HTTP/1.1" 304 -
127.0.0.1 - - [14/Oct/2015:23:43:35 +0900] "GET /MenTomen/img/sw.jpg HTTP/1.1" 304 -
127.0.0.1 - - [14/Oct/2015:23:43:35 +0900] "GET /MenTomen/img/mento.png HTTP/1.1" 304 -
127.0.0.1 - - [14/Oct/2015:23:43:42 +0900] "GET /MenTomen/BoardList.bo?pageVal=1 HTTP/1.1" 200 4415
127.0.0.1 - - [14/Oct/2015:23:43:44 +0900] "GET /MenTomen/BoardDetailAction.bo?pageVal=1&num=28&page=1 HTTP/1.1" 200 3182
127.0.0.1 - - [14/Oct/2015:23:43:45 +0900] "GET /MenTomen/DownLoad.bo?filenameHydrangeas.jpg HTTP/1.1" 200 -
127.0.0.1 - - [14/Oct/2015:23:44:04 +0900] "GET /MenTomen/DownLoad.bo?filenameHydrangeas.jpg HTTP/1.1" 200 -
127.0.0.1 - - [14/Oct/2015:23:44:09 +0900] "GET /MenTomen/BoardDetailAction.bo?pageVal=1&num=28&page=1 HTTP/1.1" 200 3182
127.0.0.1 - - [14/Oct/2015:23:44:09 +0900] "GET /MenTomen/css/qna_board.css HTTP/1.1" 304 -
127.0.0.1 - - [14/Oct/2015:23:44:16 +0900] "GET /MenTomen/DownLoad.bo?filenameHydrangeas.jpg HTTP/1.1" 200 -
127.0.0.1 - - [14/Oct/2015:23:44:43 +0900] "GET /MenTomen/BoardDetailAction.bo?pageVal=1&num=28&page=1 HTTP/1.1" 200 3182
127.0.0.1 - - [14/Oct/2015:23:44:43 +0900] "GET /MenTomen/css/qna_board.css HTTP/1.1" 304 -
127.0.0.1 - - [14/Oct/2015:23:44:49 +0900] "GET /MenTomen/DownLoad.bo?filenameHydrangeas.jpg HTTP/1.1" 200 -
127.0.0.1 - - [14/Oct/2015:23:44:52 +0900] "GET /MenTomen/DownLoad.bo?filenameHydrangeas.jpg HTTP/1.1" 200 -
127.0.0.1 - - [14/Oct/2015:23:45:44 +0900] "GET /MenTomen/DownLoad.bo?filenameHydrangeas.jpg HTTP/1.1" 200 -
127.0.0.1 - - [14/Oct/2015:23:45:55 +0900] "GET /MenTomen/MemberLogin.me HTTP/1.1" 200 1712
127.0.0.1 - - [14/Oct/2015:23:46:00 +0900] "POST /MenTomen/MemberLoginAction.me HTTP/1.1" 200 2699
127.0.0.1 - - [14/Oct/2015:23:46:01 +0900] "GET /MenTomen/BoardList.bo?pageVal=1 HTTP/1.1" 200 4508
127.0.0.1 - - [14/Oct/2015:23:46:02 +0900] "GET /MenTomen/BoardWrite.bo?pageVal=1 HTTP/1.1" 200 3279
127.0.0.1 - - [14/Oct/2015:23:46:11 +0900] "POST /MenTomen/BoardAddAction.bo HTTP/1.1" 302 -
127.0.0.1 - - [14/Oct/2015:23:46:11 +0900] "GET /MenTomen/BoardList.bo?pageVal=1 HTTP/1.1" 200 4509
127.0.0.1 - - [14/Oct/2015:23:46:12 +0900] "GET /MenTomen/BoardDetailAction.bo?pageVal=1&num=29&page=1 HTTP/1.1" 200 3477
127.0.0.1 - - [14/Oct/2015:23:46:13 +0900] "GET /MenTomen/DownLoad.bo?filenameJellyfish1.jpg HTTP/1.1" 200 -
127.0.0.1 - - [14/Oct/2015:23:47:05 +0900] "GET /MenTomen/BoardList.bo?pageVal=1 HTTP/1.1" 200 4509
127.0.0.1 - - [14/Oct/2015:23:47:05 +0900] "GET /MenTomen/css/qna_board.css HTTP/1.1" 304 -
127.0.0.1 - - [14/Oct/2015:23:47:12 +0900] "GET /MenTomen/BoardWrite.bo?pageVal=1 HTTP/1.1" 200 3279
127.0.0.1 - - [14/Oct/2015:23:47:16 +0900] "POST /MenTomen/BoardAddAction.bo HTTP/1.1" 302 -
127.0.0.1 - - [14/Oct/2015:23:47:16 +0900] "GET /MenTomen/BoardList.bo?pageVal=1 HTTP/1.1" 200 4508
127.0.0.1 - - [14/Oct/2015:23:47:33 +0900] "GET /MenTomen/BoardDetailAction.bo?pageVal=1&num=30&page=1 HTTP/1.1" 200 3467
127.0.0.1 - - [14/Oct/2015:23:47:35 +0900] "GET /MenTomen/DownLoad.bo?filenameKoala.jpg HTTP/1.1" 200 -
127.0.0.1 - - [14/Oct/2015:23:48:41 +0900] "GET /MenTomen/BoardDetailAction.bo?pageVal=1&num=30&page=1 HTTP/1.1" 200 3467
127.0.0.1 - - [14/Oct/2015:23:48:41 +0900] "GET /MenTomen/css/qna_board.css HTTP/1.1" 304 -
127.0.0.1 - - [14/Oct/2015:23:48:48 +0900] "GET /MenTomen/DownLoad.bo?filenameKoala.jpg HTTP/1.1" 200 -
127.0.0.1 - - [14/Oct/2015:23:49:18 +0900] "GET /MenTomen/BoardDetailAction.bo?pageVal=1&num=30&page=1 HTTP/1.1" 200 3468
127.0.0.1 - - [14/Oct/2015:23:49:18 +0900] "GET /MenTomen/css/qna_board.css HTTP/1.1" 304 -
127.0.0.1 - - [14/Oct/2015:23:49:28 +0900] "GET /MenTomen/BoardDetailAction.bo?pageVal=1&num=30&page=1 HTTP/1.1" 200 3468
127.0.0.1 - - [14/Oct/2015:23:49:28 +0900] "GET /MenTomen/css/qna_board.css HTTP/1.1" 304 -
127.0.0.1 - - [14/Oct/2015:23:49:30 +0900] "GET /MenTomen/DownLoad.bo?filename=Koala.jpg HTTP/1.1" 200 781603
127.0.0.1 - - [14/Oct/2015:23:49:52 +0900] "GET /MenTomen/BoardList.bo?pageVal=1&page=1 HTTP/1.1" 200 4508
127.0.0.1 - - [14/Oct/2015:23:49:54 +0900] "GET /MenTomen/BoardWrite.bo?pageVal=1 HTTP/1.1" 200 3279
127.0.0.1 - - [14/Oct/2015:23:50:09 +0900] "POST /MenTomen/BoardAddAction.bo HTTP/1.1" 302 -
127.0.0.1 - - [14/Oct/2015:23:50:09 +0900] "GET /MenTomen/BoardList.bo?pageVal=1 HTTP/1.1" 200 4509
127.0.0.1 - - [14/Oct/2015:23:50:11 +0900] "GET /MenTomen/BoardDetailAction.bo?pageVal=1&num=31&page=1 HTTP/1.1" 200 3484
127.0.0.1 - - [14/Oct/2015:23:50:12 +0900] "GET /MenTomen/DownLoad.bo?filename=개인발표.pptx HTTP/1.1" 200 1259057
127.0.0.1 - - [14/Oct/2015:23:50:23 +0900] "GET /MenTomen/BoardList.bo?pageVal=1&page=1 HTTP/1.1" 200 4509
127.0.0.1 - - [14/Oct/2015:23:50:39 +0900] "GET /MenTomen/BoardWrite.bo?pageVal=1 HTTP/1.1" 200 3279
127.0.0.1 - - [14/Oct/2015:23:51:04 +0900] "POST /MenTomen/BoardAddAction.bo HTTP/1.1" 200 -
127.0.0.1 - - [14/Oct/2015:23:51:19 +0900] "POST /MenTomen/BoardAddAction.bo HTTP/1.1" 302 -
127.0.0.1 - - [14/Oct/2015:23:51:19 +0900] "GET /MenTomen/BoardList.bo?pageVal=1 HTTP/1.1" 200 4516
127.0.0.1 - - [14/Oct/2015:23:51:21 +0900] "GET /MenTomen/BoardDetailAction.bo?pageVal=1&num=32&page=1 HTTP/1.1" 200 3493
127.0.0.1 - - [14/Oct/2015:23:51:22 +0900] "GET /MenTomen/DownLoad.bo?filename=Hydrangeas1.jpg HTTP/1.1" 200 595873
