127.0.0.1 - - [13/Nov/2015:12:02:28 +0900] "GET / HTTP/1.1" 404 994
0:0:0:0:0:0:0:1 - - [13/Nov/2015:12:02:39 +0900] "GET /MenTomen HTTP/1.1" 302 -
0:0:0:0:0:0:0:1 - - [13/Nov/2015:12:02:39 +0900] "GET /MenTomen/ HTTP/1.1" 200 2705
0:0:0:0:0:0:0:1 - - [13/Nov/2015:12:02:40 +0900] "GET /MenTomen/img/banner2.png HTTP/1.1" 200 282003
0:0:0:0:0:0:0:1 - - [13/Nov/2015:12:02:40 +0900] "GET /MenTomen/img/home.jpg HTTP/1.1" 200 22414
0:0:0:0:0:0:0:1 - - [13/Nov/2015:12:02:40 +0900] "GET /MenTomen/img/lib.jpg HTTP/1.1" 200 7260
0:0:0:0:0:0:0:1 - - [13/Nov/2015:12:02:40 +0900] "GET /MenTomen/img/notice.png HTTP/1.1" 200 6667
0:0:0:0:0:0:0:1 - - [13/Nov/2015:12:02:40 +0900] "GET /MenTomen/img/qna.png HTTP/1.1" 200 9682
0:0:0:0:0:0:0:1 - - [13/Nov/2015:12:02:40 +0900] "GET /MenTomen/img/lec.png HTTP/1.1" 200 6345
0:0:0:0:0:0:0:1 - - [13/Nov/2015:12:02:40 +0900] "GET /MenTomen/img/sw.jpg HTTP/1.1" 200 5297
0:0:0:0:0:0:0:1 - - [13/Nov/2015:12:02:40 +0900] "GET /MenTomen/img/mento.png HTTP/1.1" 200 237464
0:0:0:0:0:0:0:1 - - [13/Nov/2015:12:02:40 +0900] "GET /MenTomen/img/e.jpg HTTP/1.1" 200 5484
0:0:0:0:0:0:0:1 - - [13/Nov/2015:12:02:41 +0900] "GET /MenTomen/MemberJoin.me HTTP/1.1" 200 3465
0:0:0:0:0:0:0:1 - - [13/Nov/2015:12:02:46 +0900] "GET /MenTomen/MemberLogin.me HTTP/1.1" 200 1712
0:0:0:0:0:0:0:1 - - [13/Nov/2015:12:02:48 +0900] "POST /MenTomen/MemberLoginAction.me HTTP/1.1" 200 2730
0:0:0:0:0:0:0:1 - - [13/Nov/2015:12:02:49 +0900] "GET /MenTomen/Mypage.rq HTTP/1.1" 200 5446
0:0:0:0:0:0:0:1 - - [13/Nov/2015:12:02:49 +0900] "GET /MenTomen/css/mypage_home.css HTTP/1.1" 304 -
0:0:0:0:0:0:0:1 - - [13/Nov/2015:12:02:52 +0900] "GET /MenTomen/RequestLecAction.rq HTTP/1.1" 200 1879
0:0:0:0:0:0:0:1 - - [13/Nov/2015:12:02:52 +0900] "GET /MenTomen/css/mypage_lec_view.css HTTP/1.1" 304 -
0:0:0:0:0:0:0:1 - - [13/Nov/2015:12:02:55 +0900] "GET /MenTomen/MemberLogout.me HTTP/1.1" 200 2705
0:0:0:0:0:0:0:1 - - [13/Nov/2015:12:02:56 +0900] "GET /MenTomen/MemberLogin.me HTTP/1.1" 200 1712
0:0:0:0:0:0:0:1 - - [13/Nov/2015:12:02:59 +0900] "POST /MenTomen/MemberLoginAction.me HTTP/1.1" 200 2731
0:0:0:0:0:0:0:1 - - [13/Nov/2015:12:03:00 +0900] "GET /MenTomen/Mypage.rq HTTP/1.1" 200 6535
0:0:0:0:0:0:0:1 - - [13/Nov/2015:12:03:01 +0900] "GET /MenTomen/RequestLecAction.rq HTTP/1.1" 200 7146
0:0:0:0:0:0:0:1 - - [13/Nov/2015:12:03:07 +0900] "GET /MenTomen/Mypage.rq HTTP/1.1" 200 6535
0:0:0:0:0:0:0:1 - - [13/Nov/2015:12:04:12 +0900] "GET /MenTomen/Mypage.rq?permit=1 HTTP/1.1" 200 5871
0:0:0:0:0:0:0:1 - - [13/Nov/2015:12:04:13 +0900] "GET /MenTomen/Mypage.rq?permit=0 HTTP/1.1" 200 5227
0:0:0:0:0:0:0:1 - - [13/Nov/2015:12:04:15 +0900] "GET /MenTomen/Mypage.rq?permit=2 HTTP/1.1" 200 6543
0:0:0:0:0:0:0:1 - - [13/Nov/2015:12:04:21 +0900] "GET /MenTomen/RequestLecAction.rq HTTP/1.1" 200 7146
0:0:0:0:0:0:0:1 - - [13/Nov/2015:12:06:58 +0900] "GET /MenTomen/BoardList.bo?pageVal=4&boardIdx=0 HTTP/1.1" 200 1862
0:0:0:0:0:0:0:1 - - [13/Nov/2015:12:06:58 +0900] "GET /MenTomen/css/qna_board.css HTTP/1.1" 304 -
0:0:0:0:0:0:0:1 - - [13/Nov/2015:12:07:10 +0900] "GET /MenTomen/BoardList.bo?pageVal=4&boardIdx=0 HTTP/1.1" 200 1862
0:0:0:0:0:0:0:1 - - [13/Nov/2015:12:07:13 +0900] "GET /MenTomen/BoardList.bo?pageVal=4&boardIdx=0 HTTP/1.1" 200 1862
0:0:0:0:0:0:0:1 - - [13/Nov/2015:12:07:15 +0900] "GET /MenTomen/BoardList.bo?pageVal=4&boardIdx=0 HTTP/1.1" 200 1862
0:0:0:0:0:0:0:1 - - [13/Nov/2015:12:24:17 +0900] "GET /MenTomen/RequestLecAction.rq HTTP/1.1" 200 7173
0:0:0:0:0:0:0:1 - - [13/Nov/2015:12:24:17 +0900] "GET /MenTomen/css/mypage_lec_view.css HTTP/1.1" 304 -
0:0:0:0:0:0:0:1 - - [13/Nov/2015:12:24:19 +0900] "GET /MenTomen/BoardList.bo?pageVal=4&boardIdx=13 HTTP/1.1" 200 1862
0:0:0:0:0:0:0:1 - - [13/Nov/2015:12:24:21 +0900] "GET /MenTomen/BoardList.bo?pageVal=4&boardIdx=14 HTTP/1.1" 200 1862
0:0:0:0:0:0:0:1 - - [13/Nov/2015:12:24:24 +0900] "GET /MenTomen/BoardList.bo?pageVal=4&boardIdx=18 HTTP/1.1" 200 1862
0:0:0:0:0:0:0:1 - - [13/Nov/2015:12:25:41 +0900] "GET /MenTomen/BoardList.bo?pageVal=4&boardIdx=13 HTTP/1.1" 200 1862
0:0:0:0:0:0:0:1 - - [13/Nov/2015:12:25:44 +0900] "GET /MenTomen/BoardWrite.bo?pageVal=4 HTTP/1.1" 200 3544
0:0:0:0:0:0:0:1 - - [13/Nov/2015:12:25:44 +0900] "GET /MenTomen/js/qna_board.js HTTP/1.1" 304 -
0:0:0:0:0:0:0:1 - - [13/Nov/2015:12:25:45 +0900] "GET /MenTomen/se2/SmartEditor2Skin.html HTTP/1.1" 200 100529
0:0:0:0:0:0:0:1 - - [13/Nov/2015:12:25:46 +0900] "GET /MenTomen/se2/img/bg_text_tool.gif HTTP/1.1" 200 1123
0:0:0:0:0:0:0:1 - - [13/Nov/2015:12:25:46 +0900] "GET /MenTomen/se2/img/ko_KR/btn_set.png?130306 HTTP/1.1" 200 1469116
0:0:0:0:0:0:0:1 - - [13/Nov/2015:12:25:46 +0900] "GET /MenTomen/se2/img/icon_set.gif HTTP/1.1" 200 4611
0:0:0:0:0:0:0:1 - - [13/Nov/2015:12:25:46 +0900] "GET /MenTomen/se2/img/ko_KR/text_tool_set.png?140317 HTTP/1.1" 200 11403
0:0:0:0:0:0:0:1 - - [13/Nov/2015:12:25:47 +0900] "GET /MenTomen/se2/smart_editor2_inputarea.html HTTP/1.1" 200 318
0:0:0:0:0:0:0:1 - - [13/Nov/2015:12:25:47 +0900] "GET /MenTomen/se2/img/bg_button.gif?20121228 HTTP/1.1" 200 526
0:0:0:0:0:0:0:1 - - [13/Nov/2015:12:25:47 +0900] "GET /MenTomen/se2/img/bg_button_left.gif?20121228 HTTP/1.1" 200 331
0:0:0:0:0:0:0:1 - - [13/Nov/2015:12:25:47 +0900] "GET /MenTomen/se2/img/bg_button_right.gif HTTP/1.1" 200 1240
0:0:0:0:0:0:0:1 - - [13/Nov/2015:15:05:46 +0900] "GET /MenTomen/se2/img/ico_extend.png HTTP/1.1" 200 270
0:0:0:0:0:0:0:1 - - [13/Nov/2015:15:07:13 +0900] "POST /MenTomen/BoardAddAction.bo HTTP/1.1" 200 -
0:0:0:0:0:0:0:1 - - [13/Nov/2015:15:13:40 +0900] "GET /MenTomen/BoardList.bo?pageVal=4&boardIdx=13 HTTP/1.1" 200 1737
0:0:0:0:0:0:0:1 - - [13/Nov/2015:15:13:40 +0900] "GET /MenTomen/css/qna_board.css HTTP/1.1" 304 -
0:0:0:0:0:0:0:1 - - [13/Nov/2015:15:14:07 +0900] "GET /MenTomen/BoardList.bo?pageVal=4&boardIdx=13 HTTP/1.1" 200 1737
0:0:0:0:0:0:0:1 - - [13/Nov/2015:15:14:07 +0900] "GET /MenTomen/css/qna_board.css HTTP/1.1" 304 -
0:0:0:0:0:0:0:1 - - [13/Nov/2015:15:14:40 +0900] "GET /MenTomen/BoardList.bo HTTP/1.1" 200 -
0:0:0:0:0:0:0:1 - - [13/Nov/2015:15:14:44 +0900] "GET /MenTomen/ HTTP/1.1" 200 2705
0:0:0:0:0:0:0:1 - - [13/Nov/2015:15:14:46 +0900] "GET /MenTomen/MemberLogin.me HTTP/1.1" 200 1712
0:0:0:0:0:0:0:1 - - [13/Nov/2015:15:15:00 +0900] "POST /MenTomen/MemberLoginAction.me HTTP/1.1" 200 2731
0:0:0:0:0:0:0:1 - - [13/Nov/2015:15:15:02 +0900] "GET /MenTomen/Mypage.rq HTTP/1.1" 200 6535
0:0:0:0:0:0:0:1 - - [13/Nov/2015:15:15:05 +0900] "GET /MenTomen/RequestLecAction.rq HTTP/1.1" 200 6757
0:0:0:0:0:0:0:1 - - [13/Nov/2015:15:15:07 +0900] "GET /MenTomen/BoardList.bo?pageVal=4&boardIdx=13 HTTP/1.1" 200 1874
0:0:0:0:0:0:0:1 - - [13/Nov/2015:15:15:09 +0900] "GET /MenTomen/BoardWrite.bo?pageVal=4&boardIdx=13 HTTP/1.1" 200 3544
0:0:0:0:0:0:0:1 - - [13/Nov/2015:15:19:41 +0900] "GET /MenTomen/BoardWrite.bo?pageVal=4&boardIdx=13 HTTP/1.1" 200 3599
0:0:0:0:0:0:0:1 - - [13/Nov/2015:15:19:41 +0900] "GET /MenTomen/css/qna_board.css HTTP/1.1" 304 -
0:0:0:0:0:0:0:1 - - [13/Nov/2015:15:19:41 +0900] "GET /MenTomen/se2/js/HuskyEZCreator.js HTTP/1.1" 304 -
0:0:0:0:0:0:0:1 - - [13/Nov/2015:15:19:41 +0900] "GET /MenTomen/js/qna_board.js HTTP/1.1" 304 -
0:0:0:0:0:0:0:1 - - [13/Nov/2015:15:20:05 +0900] "GET /MenTomen/se2/SmartEditor2Skin.html HTTP/1.1" 304 -
0:0:0:0:0:0:0:1 - - [13/Nov/2015:15:20:05 +0900] "GET /MenTomen/se2/css/smart_editor2.css HTTP/1.1" 304 -
0:0:0:0:0:0:0:1 - - [13/Nov/2015:15:20:05 +0900] "GET /MenTomen/se2/js/jindo_component.js HTTP/1.1" 304 -
0:0:0:0:0:0:0:1 - - [13/Nov/2015:15:20:05 +0900] "GET /MenTomen/se2/js/jindo.min.js HTTP/1.1" 304 -
0:0:0:0:0:0:0:1 - - [13/Nov/2015:15:20:05 +0900] "GET /MenTomen/se2/js/SE2B_Configuration_Service.js HTTP/1.1" 304 -
0:0:0:0:0:0:0:1 - - [13/Nov/2015:15:20:05 +0900] "GET /MenTomen/se2/js/SE2B_Configuration_General.js HTTP/1.1" 304 -
0:0:0:0:0:0:0:1 - - [13/Nov/2015:15:20:05 +0900] "GET /MenTomen/se2/js/SE2BasicCreator.js HTTP/1.1" 304 -
0:0:0:0:0:0:0:1 - - [13/Nov/2015:15:20:05 +0900] "GET /MenTomen/se2/photo_uploader/plugin/hp_SE2M_AttachQuickPhoto.js HTTP/1.1" 304 -
0:0:0:0:0:0:0:1 - - [13/Nov/2015:15:20:05 +0900] "GET /MenTomen/se2/js/smarteditor2.min.js HTTP/1.1" 304 -
0:0:0:0:0:0:0:1 - - [13/Nov/2015:15:20:06 +0900] "GET /MenTomen/se2/img/bg_text_tool.gif HTTP/1.1" 304 -
0:0:0:0:0:0:0:1 - - [13/Nov/2015:15:20:06 +0900] "GET /MenTomen/se2/img/ko_KR/btn_set.png?130306 HTTP/1.1" 304 -
0:0:0:0:0:0:0:1 - - [13/Nov/2015:15:20:06 +0900] "GET /MenTomen/se2/img/icon_set.gif HTTP/1.1" 304 -
0:0:0:0:0:0:0:1 - - [13/Nov/2015:15:20:06 +0900] "GET /MenTomen/se2/img/ko_KR/text_tool_set.png?140317 HTTP/1.1" 304 -
0:0:0:0:0:0:0:1 - - [13/Nov/2015:15:20:06 +0900] "GET /MenTomen/se2/smart_editor2_inputarea.html HTTP/1.1" 304 -
0:0:0:0:0:0:0:1 - - [13/Nov/2015:15:20:06 +0900] "GET /MenTomen/se2/css/smart_editor2_in.css HTTP/1.1" 304 -
0:0:0:0:0:0:0:1 - - [13/Nov/2015:15:20:09 +0900] "GET /MenTomen/BoardWrite.bo?pageVal=4&boardIdx=13 HTTP/1.1" 200 3599
0:0:0:0:0:0:0:1 - - [13/Nov/2015:15:20:09 +0900] "GET /MenTomen/css/qna_board.css HTTP/1.1" 304 -
0:0:0:0:0:0:0:1 - - [13/Nov/2015:15:20:09 +0900] "GET /MenTomen/se2/js/HuskyEZCreator.js HTTP/1.1" 304 -
0:0:0:0:0:0:0:1 - - [13/Nov/2015:15:20:09 +0900] "GET /MenTomen/js/qna_board.js HTTP/1.1" 304 -
0:0:0:0:0:0:0:1 - - [13/Nov/2015:15:20:33 +0900] "GET /MenTomen/se2/SmartEditor2Skin.html HTTP/1.1" 304 -
0:0:0:0:0:0:0:1 - - [13/Nov/2015:15:20:33 +0900] "GET /MenTomen/se2/css/smart_editor2.css HTTP/1.1" 304 -
0:0:0:0:0:0:0:1 - - [13/Nov/2015:15:20:33 +0900] "GET /MenTomen/se2/js/jindo.min.js HTTP/1.1" 304 -
0:0:0:0:0:0:0:1 - - [13/Nov/2015:15:20:33 +0900] "GET /MenTomen/se2/js/jindo_component.js HTTP/1.1" 304 -
0:0:0:0:0:0:0:1 - - [13/Nov/2015:15:20:33 +0900] "GET /MenTomen/se2/js/SE2B_Configuration_Service.js HTTP/1.1" 304 -
0:0:0:0:0:0:0:1 - - [13/Nov/2015:15:20:33 +0900] "GET /MenTomen/se2/js/SE2BasicCreator.js HTTP/1.1" 304 -
0:0:0:0:0:0:0:1 - - [13/Nov/2015:15:20:33 +0900] "GET /MenTomen/se2/js/SE2B_Configuration_General.js HTTP/1.1" 304 -
0:0:0:0:0:0:0:1 - - [13/Nov/2015:15:20:33 +0900] "GET /MenTomen/se2/js/smarteditor2.min.js HTTP/1.1" 304 -
0:0:0:0:0:0:0:1 - - [13/Nov/2015:15:20:33 +0900] "GET /MenTomen/se2/photo_uploader/plugin/hp_SE2M_AttachQuickPhoto.js HTTP/1.1" 304 -
0:0:0:0:0:0:0:1 - - [13/Nov/2015:15:20:34 +0900] "GET /MenTomen/se2/img/bg_text_tool.gif HTTP/1.1" 304 -
0:0:0:0:0:0:0:1 - - [13/Nov/2015:15:20:34 +0900] "GET /MenTomen/se2/img/ko_KR/text_tool_set.png?140317 HTTP/1.1" 304 -
0:0:0:0:0:0:0:1 - - [13/Nov/2015:15:20:34 +0900] "GET /MenTomen/se2/img/icon_set.gif HTTP/1.1" 304 -
0:0:0:0:0:0:0:1 - - [13/Nov/2015:15:20:34 +0900] "GET /MenTomen/se2/img/ko_KR/btn_set.png?130306 HTTP/1.1" 304 -
0:0:0:0:0:0:0:1 - - [13/Nov/2015:15:20:34 +0900] "GET /MenTomen/se2/smart_editor2_inputarea.html HTTP/1.1" 304 -
0:0:0:0:0:0:0:1 - - [13/Nov/2015:15:20:34 +0900] "GET /MenTomen/se2/css/smart_editor2_in.css HTTP/1.1" 304 -
0:0:0:0:0:0:0:1 - - [13/Nov/2015:15:20:44 +0900] "POST /MenTomen/BoardAddAction.bo HTTP/1.1" 302 -
0:0:0:0:0:0:0:1 - - [13/Nov/2015:15:20:45 +0900] "GET /MenTomen/BoardList.bo?pageVal=4 HTTP/1.1" 200 2189
0:0:0:0:0:0:0:1 - - [13/Nov/2015:15:20:49 +0900] "GET /MenTomen/BoardDetailAction.bo?pageVal=4&num=1&page=1 HTTP/1.1" 200 2982
0:0:0:0:0:0:0:1 - - [13/Nov/2015:15:20:53 +0900] "GET /MenTomen/BoardList.bo?pageVal=4&page=1 HTTP/1.1" 200 2189
0:0:0:0:0:0:0:1 - - [13/Nov/2015:15:20:58 +0900] "GET /MenTomen/Mypage.rq HTTP/1.1" 200 6535
0:0:0:0:0:0:0:1 - - [13/Nov/2015:15:20:59 +0900] "GET /MenTomen/RequestLecAction.rq HTTP/1.1" 200 6757
0:0:0:0:0:0:0:1 - - [13/Nov/2015:15:21:01 +0900] "GET /MenTomen/BoardList.bo?pageVal=4&boardIdx=13 HTTP/1.1" 200 2187
0:0:0:0:0:0:0:1 - - [13/Nov/2015:15:21:03 +0900] "GET /MenTomen/BoardDetailAction.bo?pageVal=4&num=1&page=1 HTTP/1.1" 200 2982
0:0:0:0:0:0:0:1 - - [13/Nov/2015:15:21:07 +0900] "GET /MenTomen/BoardList.bo?pageVal=4&page=1 HTTP/1.1" 200 2189
0:0:0:0:0:0:0:1 - - [13/Nov/2015:15:21:09 +0900] "GET /MenTomen/BoardWrite.bo?pageVal=4&boardIdx=null HTTP/1.1" 200 3601
0:0:0:0:0:0:0:1 - - [13/Nov/2015:15:21:16 +0900] "POST /MenTomen/BoardAddAction.bo HTTP/1.1" 200 -
0:0:0:0:0:0:0:1 - - [13/Nov/2015:15:22:53 +0900] "GET /MenTomen/BoardWrite.bo?pageVal=4&boardIdx=null HTTP/1.1" 200 3611
0:0:0:0:0:0:0:1 - - [13/Nov/2015:15:22:53 +0900] "GET /MenTomen/css/qna_board.css HTTP/1.1" 304 -
0:0:0:0:0:0:0:1 - - [13/Nov/2015:15:22:53 +0900] "GET /MenTomen/se2/js/HuskyEZCreator.js HTTP/1.1" 304 -
0:0:0:0:0:0:0:1 - - [13/Nov/2015:15:22:53 +0900] "GET /MenTomen/js/qna_board.js HTTP/1.1" 304 -
0:0:0:0:0:0:0:1 - - [13/Nov/2015:15:23:19 +0900] "GET /MenTomen/BoardWrite.bo HTTP/1.1" 500 1673
0:0:0:0:0:0:0:1 - - [13/Nov/2015:15:23:22 +0900] "GET /MenTomen/ HTTP/1.1" 200 2731
0:0:0:0:0:0:0:1 - - [13/Nov/2015:15:23:24 +0900] "GET /MenTomen/Mypage.rq HTTP/1.1" 200 6535
0:0:0:0:0:0:0:1 - - [13/Nov/2015:15:23:26 +0900] "GET /MenTomen/RequestLecAction.rq HTTP/1.1" 200 6757
0:0:0:0:0:0:0:1 - - [13/Nov/2015:15:23:27 +0900] "GET /MenTomen/BoardList.bo?pageVal=4&boardIdx=13 HTTP/1.1" 200 2187
0:0:0:0:0:0:0:1 - - [13/Nov/2015:15:23:30 +0900] "GET /MenTomen/BoardWrite.bo?pageVal=4&boardIdx=13 HTTP/1.1" 200 3607
0:0:0:0:0:0:0:1 - - [13/Nov/2015:15:23:39 +0900] "POST /MenTomen/BoardAddAction.bo HTTP/1.1" 302 -
0:0:0:0:0:0:0:1 - - [13/Nov/2015:15:23:39 +0900] "GET /MenTomen/BoardList.bo?pageVal=4 HTTP/1.1" 200 2409
0:0:0:0:0:0:0:1 - - [13/Nov/2015:15:23:42 +0900] "GET /MenTomen/BoardDetailAction.bo?pageVal=4&num=2&page=1 HTTP/1.1" 200 -
