0:0:0:0:0:0:0:1 - - [18/Nov/2015:01:36:29 +0900] "GET / HTTP/1.1" 404 994
0:0:0:0:0:0:0:1 - - [18/Nov/2015:01:36:33 +0900] "GET /MenTomen/ HTTP/1.1" 200 2705
0:0:0:0:0:0:0:1 - - [18/Nov/2015:01:36:33 +0900] "GET /MenTomen/img/banner2.png HTTP/1.1" 200 282003
0:0:0:0:0:0:0:1 - - [18/Nov/2015:01:36:34 +0900] "GET /MenTomen/img/notice.png HTTP/1.1" 200 6667
0:0:0:0:0:0:0:1 - - [18/Nov/2015:01:36:34 +0900] "GET /MenTomen/img/lec.png HTTP/1.1" 200 6345
0:0:0:0:0:0:0:1 - - [18/Nov/2015:01:36:34 +0900] "GET /MenTomen/img/e.jpg HTTP/1.1" 200 5484
0:0:0:0:0:0:0:1 - - [18/Nov/2015:01:36:34 +0900] "GET /MenTomen/img/sw.jpg HTTP/1.1" 200 5297
0:0:0:0:0:0:0:1 - - [18/Nov/2015:01:36:34 +0900] "GET /MenTomen/img/mento.png HTTP/1.1" 200 237464
0:0:0:0:0:0:0:1 - - [18/Nov/2015:01:36:34 +0900] "GET /MenTomen/img/lib.jpg HTTP/1.1" 200 7260
0:0:0:0:0:0:0:1 - - [18/Nov/2015:01:36:34 +0900] "GET /MenTomen/img/home.jpg HTTP/1.1" 200 22414
0:0:0:0:0:0:0:1 - - [18/Nov/2015:01:36:34 +0900] "GET /MenTomen/img/qna.png HTTP/1.1" 200 9682
0:0:0:0:0:0:0:1 - - [18/Nov/2015:01:36:36 +0900] "GET /MenTomen/MemberLogin.me HTTP/1.1" 200 1712
0:0:0:0:0:0:0:1 - - [18/Nov/2015:01:36:39 +0900] "POST /MenTomen/MemberLoginAction.me HTTP/1.1" 200 2731
0:0:0:0:0:0:0:1 - - [18/Nov/2015:01:36:42 +0900] "GET /MenTomen/Mypage.rq HTTP/1.1" 200 6535
0:0:0:0:0:0:0:1 - - [18/Nov/2015:01:36:43 +0900] "GET /MenTomen/RequestLecAction.rq HTTP/1.1" 200 7344
0:0:0:0:0:0:0:1 - - [18/Nov/2015:01:36:45 +0900] "GET /MenTomen/BoardList.bo?pageVal=4&boardIdx=13 HTTP/1.1" 200 3825
0:0:0:0:0:0:0:1 - - [18/Nov/2015:01:36:47 +0900] "GET /MenTomen/BoardDetailAction.bo?pageVal=4&num=9&page=1&boardIdx=13 HTTP/1.1" 200 3508
0:0:0:0:0:0:0:1 - - [18/Nov/2015:01:36:50 +0900] "GET /MenTomen/BoardList.bo?pageVal=4&boardIdx=13&page=1 HTTP/1.1" 200 3825
0:0:0:0:0:0:0:1 - - [18/Nov/2015:01:36:53 +0900] "GET /MenTomen/BoardDetailAction.bo?pageVal=4&num=1&page=1&boardIdx=13 HTTP/1.1" 200 3517
0:0:0:0:0:0:0:1 - - [18/Nov/2015:01:36:54 +0900] "GET /MenTomen/BoardList.bo?pageVal=4&boardIdx=13&page=1 HTTP/1.1" 200 3825
0:0:0:0:0:0:0:1 - - [18/Nov/2015:01:36:55 +0900] "GET /MenTomen/BoardDetailAction.bo?pageVal=4&num=5&page=1&boardIdx=13 HTTP/1.1" 200 3530
0:0:0:0:0:0:0:1 - - [18/Nov/2015:01:36:57 +0900] "GET /MenTomen/BoardModify.bo?pageVal=4&num=5&page=1 HTTP/1.1" 200 4050
0:0:0:0:0:0:0:1 - - [18/Nov/2015:01:36:57 +0900] "GET /MenTomen/se2/SmartEditor2Skin.html HTTP/1.1" 200 100529
0:0:0:0:0:0:0:1 - - [18/Nov/2015:01:36:58 +0900] "GET /MenTomen/se2/img/bg_text_tool.gif HTTP/1.1" 200 1123
0:0:0:0:0:0:0:1 - - [18/Nov/2015:01:36:58 +0900] "GET /MenTomen/se2/img/ko_KR/btn_set.png?130306 HTTP/1.1" 200 1469116
0:0:0:0:0:0:0:1 - - [18/Nov/2015:01:36:58 +0900] "GET /MenTomen/se2/img/ko_KR/text_tool_set.png?140317 HTTP/1.1" 200 11403
0:0:0:0:0:0:0:1 - - [18/Nov/2015:01:36:58 +0900] "GET /MenTomen/se2/img/icon_set.gif HTTP/1.1" 200 4611
0:0:0:0:0:0:0:1 - - [18/Nov/2015:01:36:58 +0900] "GET /MenTomen/se2/smart_editor2_inputarea.html HTTP/1.1" 200 318
0:0:0:0:0:0:0:1 - - [18/Nov/2015:01:36:58 +0900] "GET /MenTomen/se2/img/bg_button_left.gif?20121228 HTTP/1.1" 200 331
0:0:0:0:0:0:0:1 - - [18/Nov/2015:01:36:58 +0900] "GET /MenTomen/se2/img/bg_button.gif?20121228 HTTP/1.1" 200 526
0:0:0:0:0:0:0:1 - - [18/Nov/2015:01:36:58 +0900] "GET /MenTomen/se2/img/bg_button_right.gif HTTP/1.1" 200 1240
0:0:0:0:0:0:0:1 - - [18/Nov/2015:01:37:00 +0900] "GET /MenTomen/se2/img/ico_extend.png HTTP/1.1" 200 270
0:0:0:0:0:0:0:1 - - [18/Nov/2015:01:37:00 +0900] "POST /MenTomen/BoardModifyAction.bo HTTP/1.1" 200 3532
0:0:0:0:0:0:0:1 - - [18/Nov/2015:01:37:05 +0900] "GET /MenTomen/BoardList.bo?pageVal=4&boardIdx=null&page=1 HTTP/1.1" 200 -
0:0:0:0:0:0:0:1 - - [18/Nov/2015:01:39:02 +0900] "GET /MenTomen/Mypage.rq HTTP/1.1" 200 6535
0:0:0:0:0:0:0:1 - - [18/Nov/2015:01:39:03 +0900] "GET /MenTomen/RequestLecAction.rq HTTP/1.1" 200 7344
0:0:0:0:0:0:0:1 - - [18/Nov/2015:01:39:04 +0900] "GET /MenTomen/BoardList.bo?pageVal=4&boardIdx=13 HTTP/1.1" 200 3825
0:0:0:0:0:0:0:1 - - [18/Nov/2015:01:39:06 +0900] "GET /MenTomen/BoardDetailAction.bo?pageVal=4&num=5&page=1&boardIdx=13 HTTP/1.1" 200 3530
0:0:0:0:0:0:0:1 - - [18/Nov/2015:01:39:12 +0900] "GET /MenTomen/BoardModify.bo?pageVal=4&num=5&page=1 HTTP/1.1" 200 4050
0:0:0:0:0:0:0:1 - - [18/Nov/2015:01:40:13 +0900] "GET /MenTomen/BoardDetailAction.bo?pageVal=4&num=5&page=1&boardIdx=13 HTTP/1.1" 200 3554
0:0:0:0:0:0:0:1 - - [18/Nov/2015:01:40:14 +0900] "GET /MenTomen/css/qna_board.css HTTP/1.1" 304 -
0:0:0:0:0:0:0:1 - - [18/Nov/2015:01:40:15 +0900] "GET /MenTomen/BoardModify.bo?pageVal=4&num=5&page=1&boardIdx=13 HTTP/1.1" 200 4050
0:0:0:0:0:0:0:1 - - [18/Nov/2015:01:41:32 +0900] "GET /MenTomen/BoardModify.bo?pageVal=4&num=5&page=1&boardIdx=13 HTTP/1.1" 200 4050
0:0:0:0:0:0:0:1 - - [18/Nov/2015:01:41:36 +0900] "POST /MenTomen/BoardModifyAction.bo HTTP/1.1" 200 3560
0:0:0:0:0:0:0:1 - - [18/Nov/2015:01:41:39 +0900] "GET /MenTomen/BoardList.bo?pageVal=4&boardIdx=null&page=1 HTTP/1.1" 200 -
0:0:0:0:0:0:0:1 - - [18/Nov/2015:01:42:29 +0900] "POST /MenTomen/BoardModifyAction.bo HTTP/1.1" 200 3560
0:0:0:0:0:0:0:1 - - [18/Nov/2015:01:44:33 +0900] "GET /MenTomen/BoardList.bo?pageVal=4&boardIdx=null&page=1 HTTP/1.1" 200 -
0:0:0:0:0:0:0:1 - - [18/Nov/2015:01:52:31 +0900] "GET /MenTomen/BoardList.bo?pageVal=4&boardIdx=null&page=1 HTTP/1.1" 200 -
0:0:0:0:0:0:0:1 - - [18/Nov/2015:01:52:35 +0900] "POST /MenTomen/BoardModifyAction.bo HTTP/1.1" 200 -
0:0:0:0:0:0:0:1 - - [18/Nov/2015:01:52:40 +0900] "GET /MenTomen/BoardModify.bo?pageVal=4&num=5&page=1&boardIdx=13 HTTP/1.1" 200 4050
0:0:0:0:0:0:0:1 - - [18/Nov/2015:01:52:42 +0900] "POST /MenTomen/BoardModifyAction.bo HTTP/1.1" 200 -
0:0:0:0:0:0:0:1 - - [18/Nov/2015:01:53:11 +0900] "GET /MenTomen/BoardDetailAction.bo?pageVal=4&num=5&page=1&boardIdx=13 HTTP/1.1" 200 3554
0:0:0:0:0:0:0:1 - - [18/Nov/2015:01:53:11 +0900] "GET /MenTomen/css/qna_board.css HTTP/1.1" 304 -
0:0:0:0:0:0:0:1 - - [18/Nov/2015:01:53:12 +0900] "GET /MenTomen/BoardModify.bo?pageVal=4&num=5&page=1&boardIdx=13 HTTP/1.1" 200 4050
0:0:0:0:0:0:0:1 - - [18/Nov/2015:01:53:14 +0900] "POST /MenTomen/BoardModifyAction.bo HTTP/1.1" 200 -
0:0:0:0:0:0:0:1 - - [18/Nov/2015:01:53:26 +0900] "GET /MenTomen/ HTTP/1.1" 200 2731
0:0:0:0:0:0:0:1 - - [18/Nov/2015:01:53:28 +0900] "GET /MenTomen/Mypage.rq HTTP/1.1" 200 6535
0:0:0:0:0:0:0:1 - - [18/Nov/2015:01:53:29 +0900] "GET /MenTomen/RequestLecAction.rq HTTP/1.1" 200 7344
0:0:0:0:0:0:0:1 - - [18/Nov/2015:01:53:30 +0900] "GET /MenTomen/BoardList.bo?pageVal=4&boardIdx=13 HTTP/1.1" 200 3826
0:0:0:0:0:0:0:1 - - [18/Nov/2015:01:53:31 +0900] "GET /MenTomen/BoardDetailAction.bo?pageVal=4&num=5&page=1&boardIdx=13 HTTP/1.1" 200 3554
0:0:0:0:0:0:0:1 - - [18/Nov/2015:01:53:33 +0900] "GET /MenTomen/BoardModify.bo?pageVal=4&num=5&page=1&boardIdx=13 HTTP/1.1" 200 4050
0:0:0:0:0:0:0:1 - - [18/Nov/2015:01:53:35 +0900] "POST /MenTomen/BoardModifyAction.bo HTTP/1.1" 200 -
0:0:0:0:0:0:0:1 - - [18/Nov/2015:01:56:02 +0900] "GET /MenTomen/ HTTP/1.1" 200 2731
0:0:0:0:0:0:0:1 - - [18/Nov/2015:01:56:04 +0900] "GET /MenTomen/Mypage.rq HTTP/1.1" 200 6535
0:0:0:0:0:0:0:1 - - [18/Nov/2015:01:56:04 +0900] "GET /MenTomen/RequestLecAction.rq HTTP/1.1" 200 7344
0:0:0:0:0:0:0:1 - - [18/Nov/2015:01:56:05 +0900] "GET /MenTomen/BoardList.bo?pageVal=4&boardIdx=13 HTTP/1.1" 200 3826
0:0:0:0:0:0:0:1 - - [18/Nov/2015:01:56:06 +0900] "GET /MenTomen/BoardDetailAction.bo?pageVal=4&num=5&page=1&boardIdx=13 HTTP/1.1" 200 3554
0:0:0:0:0:0:0:1 - - [18/Nov/2015:01:56:07 +0900] "GET /MenTomen/BoardModify.bo?pageVal=4&num=5&page=1&boardIdx=13 HTTP/1.1" 200 4050
0:0:0:0:0:0:0:1 - - [18/Nov/2015:01:56:10 +0900] "POST /MenTomen/BoardModifyAction.bo HTTP/1.1" 200 3551
0:0:0:0:0:0:0:1 - - [18/Nov/2015:01:56:15 +0900] "GET /MenTomen/BoardList.bo?pageVal=4&boardIdx=0&page=1 HTTP/1.1" 200 1965
0:0:0:0:0:0:0:1 - - [18/Nov/2015:01:56:29 +0900] "POST /MenTomen/BoardModifyAction.bo HTTP/1.1" 200 3551
0:0:0:0:0:0:0:1 - - [18/Nov/2015:01:57:30 +0900] "GET /MenTomen/BoardModify.bo?pageVal=4&num=5&page=1&boardIdx=13 HTTP/1.1" 200 4106
0:0:0:0:0:0:0:1 - - [18/Nov/2015:01:57:30 +0900] "GET /MenTomen/css/qna_board.css HTTP/1.1" 304 -
0:0:0:0:0:0:0:1 - - [18/Nov/2015:01:57:30 +0900] "GET /MenTomen/js/qna_board.js HTTP/1.1" 304 -
0:0:0:0:0:0:0:1 - - [18/Nov/2015:01:57:30 +0900] "GET /MenTomen/se2/js/HuskyEZCreator.js HTTP/1.1" 304 -
0:0:0:0:0:0:0:1 - - [18/Nov/2015:01:57:30 +0900] "GET /MenTomen/se2/SmartEditor2Skin.html HTTP/1.1" 304 -
0:0:0:0:0:0:0:1 - - [18/Nov/2015:01:57:30 +0900] "GET /MenTomen/se2/js/jindo_component.js HTTP/1.1" 304 -
0:0:0:0:0:0:0:1 - - [18/Nov/2015:01:57:30 +0900] "GET /MenTomen/se2/js/jindo.min.js HTTP/1.1" 304 -
0:0:0:0:0:0:0:1 - - [18/Nov/2015:01:57:30 +0900] "GET /MenTomen/se2/js/SE2B_Configuration_Service.js HTTP/1.1" 304 -
0:0:0:0:0:0:0:1 - - [18/Nov/2015:01:57:30 +0900] "GET /MenTomen/se2/js/SE2B_Configuration_General.js HTTP/1.1" 304 -
0:0:0:0:0:0:0:1 - - [18/Nov/2015:01:57:30 +0900] "GET /MenTomen/se2/js/SE2BasicCreator.js HTTP/1.1" 304 -
0:0:0:0:0:0:0:1 - - [18/Nov/2015:01:57:30 +0900] "GET /MenTomen/se2/js/smarteditor2.min.js HTTP/1.1" 304 -
0:0:0:0:0:0:0:1 - - [18/Nov/2015:01:57:30 +0900] "GET /MenTomen/se2/photo_uploader/plugin/hp_SE2M_AttachQuickPhoto.js HTTP/1.1" 304 -
0:0:0:0:0:0:0:1 - - [18/Nov/2015:01:57:30 +0900] "GET /MenTomen/se2/css/smart_editor2.css HTTP/1.1" 304 -
0:0:0:0:0:0:0:1 - - [18/Nov/2015:01:57:30 +0900] "GET /MenTomen/se2/img/bg_text_tool.gif HTTP/1.1" 304 -
0:0:0:0:0:0:0:1 - - [18/Nov/2015:01:57:30 +0900] "GET /MenTomen/se2/img/icon_set.gif HTTP/1.1" 304 -
0:0:0:0:0:0:0:1 - - [18/Nov/2015:01:57:30 +0900] "GET /MenTomen/se2/img/ko_KR/btn_set.png?130306 HTTP/1.1" 304 -
0:0:0:0:0:0:0:1 - - [18/Nov/2015:01:57:30 +0900] "GET /MenTomen/se2/img/ko_KR/text_tool_set.png?140317 HTTP/1.1" 304 -
0:0:0:0:0:0:0:1 - - [18/Nov/2015:01:57:30 +0900] "GET /MenTomen/se2/smart_editor2_inputarea.html HTTP/1.1" 304 -
0:0:0:0:0:0:0:1 - - [18/Nov/2015:01:57:30 +0900] "GET /MenTomen/se2/css/smart_editor2_in.css HTTP/1.1" 304 -
0:0:0:0:0:0:0:1 - - [18/Nov/2015:01:57:31 +0900] "POST /MenTomen/BoardModifyAction.bo HTTP/1.1" 200 -
0:0:0:0:0:0:0:1 - - [18/Nov/2015:01:58:15 +0900] "GET /MenTomen/BoardDetailAction.bo?pageVal=4&num=5&page=1&boardIdx=13 HTTP/1.1" 200 3554
0:0:0:0:0:0:0:1 - - [18/Nov/2015:01:58:16 +0900] "GET /MenTomen/css/qna_board.css HTTP/1.1" 304 -
0:0:0:0:0:0:0:1 - - [18/Nov/2015:01:58:22 +0900] "GET /MenTomen/BoardModify.bo?pageVal=4&num=5&page=1&boardIdx=13 HTTP/1.1" 200 4106
0:0:0:0:0:0:0:1 - - [18/Nov/2015:02:00:21 +0900] "POST /MenTomen/BoardModifyAction.bo HTTP/1.1" 200 -
0:0:0:0:0:0:0:1 - - [18/Nov/2015:02:02:37 +0900] "GET /MenTomen/BoardModify.bo?pageVal=4&num=5&page=1&boardIdx=13 HTTP/1.1" 200 4117
0:0:0:0:0:0:0:1 - - [18/Nov/2015:02:02:37 +0900] "GET /MenTomen/css/qna_board.css HTTP/1.1" 304 -
0:0:0:0:0:0:0:1 - - [18/Nov/2015:02:02:37 +0900] "GET /MenTomen/se2/js/HuskyEZCreator.js HTTP/1.1" 304 -
0:0:0:0:0:0:0:1 - - [18/Nov/2015:02:02:37 +0900] "GET /MenTomen/js/qna_board.js HTTP/1.1" 304 -
0:0:0:0:0:0:0:1 - - [18/Nov/2015:02:02:37 +0900] "GET /MenTomen/se2/SmartEditor2Skin.html HTTP/1.1" 304 -
0:0:0:0:0:0:0:1 - - [18/Nov/2015:02:02:37 +0900] "GET /MenTomen/se2/js/jindo.min.js HTTP/1.1" 304 -
0:0:0:0:0:0:0:1 - - [18/Nov/2015:02:02:37 +0900] "GET /MenTomen/se2/css/smart_editor2.css HTTP/1.1" 304 -
0:0:0:0:0:0:0:1 - - [18/Nov/2015:02:02:37 +0900] "GET /MenTomen/se2/js/SE2BasicCreator.js HTTP/1.1" 304 -
0:0:0:0:0:0:0:1 - - [18/Nov/2015:02:02:37 +0900] "GET /MenTomen/se2/js/smarteditor2.min.js HTTP/1.1" 304 -
0:0:0:0:0:0:0:1 - - [18/Nov/2015:02:02:37 +0900] "GET /MenTomen/se2/js/SE2B_Configuration_General.js HTTP/1.1" 304 -
0:0:0:0:0:0:0:1 - - [18/Nov/2015:02:02:37 +0900] "GET /MenTomen/se2/js/SE2B_Configuration_Service.js HTTP/1.1" 304 -
0:0:0:0:0:0:0:1 - - [18/Nov/2015:02:02:37 +0900] "GET /MenTomen/se2/js/jindo_component.js HTTP/1.1" 304 -
0:0:0:0:0:0:0:1 - - [18/Nov/2015:02:02:37 +0900] "GET /MenTomen/se2/photo_uploader/plugin/hp_SE2M_AttachQuickPhoto.js HTTP/1.1" 304 -
0:0:0:0:0:0:0:1 - - [18/Nov/2015:02:02:37 +0900] "GET /MenTomen/se2/img/bg_text_tool.gif HTTP/1.1" 304 -
0:0:0:0:0:0:0:1 - - [18/Nov/2015:02:02:37 +0900] "GET /MenTomen/se2/img/icon_set.gif HTTP/1.1" 304 -
0:0:0:0:0:0:0:1 - - [18/Nov/2015:02:02:37 +0900] "GET /MenTomen/se2/img/ko_KR/btn_set.png?130306 HTTP/1.1" 304 -
0:0:0:0:0:0:0:1 - - [18/Nov/2015:02:02:37 +0900] "GET /MenTomen/se2/img/ko_KR/text_tool_set.png?140317 HTTP/1.1" 304 -
0:0:0:0:0:0:0:1 - - [18/Nov/2015:02:02:37 +0900] "GET /MenTomen/se2/smart_editor2_inputarea.html HTTP/1.1" 304 -
0:0:0:0:0:0:0:1 - - [18/Nov/2015:02:02:37 +0900] "GET /MenTomen/se2/css/smart_editor2_in.css HTTP/1.1" 304 -
0:0:0:0:0:0:0:1 - - [18/Nov/2015:02:03:01 +0900] "GET /MenTomen/BoardModify.bo?pageVal=4&num=5&page=1&boardIdx=13 HTTP/1.1" 200 4117
0:0:0:0:0:0:0:1 - - [18/Nov/2015:02:03:01 +0900] "GET /MenTomen/css/qna_board.css HTTP/1.1" 304 -
0:0:0:0:0:0:0:1 - - [18/Nov/2015:02:03:01 +0900] "GET /MenTomen/js/qna_board.js HTTP/1.1" 304 -
0:0:0:0:0:0:0:1 - - [18/Nov/2015:02:03:01 +0900] "GET /MenTomen/se2/js/HuskyEZCreator.js HTTP/1.1" 304 -
0:0:0:0:0:0:0:1 - - [18/Nov/2015:02:03:01 +0900] "GET /MenTomen/se2/SmartEditor2Skin.html HTTP/1.1" 304 -
0:0:0:0:0:0:0:1 - - [18/Nov/2015:02:03:01 +0900] "GET /MenTomen/se2/js/jindo.min.js HTTP/1.1" 304 -
0:0:0:0:0:0:0:1 - - [18/Nov/2015:02:03:01 +0900] "GET /MenTomen/se2/css/smart_editor2.css HTTP/1.1" 304 -
0:0:0:0:0:0:0:1 - - [18/Nov/2015:02:03:01 +0900] "GET /MenTomen/se2/js/jindo_component.js HTTP/1.1" 304 -
0:0:0:0:0:0:0:1 - - [18/Nov/2015:02:03:01 +0900] "GET /MenTomen/se2/js/SE2B_Configuration_Service.js HTTP/1.1" 304 -
0:0:0:0:0:0:0:1 - - [18/Nov/2015:02:03:01 +0900] "GET /MenTomen/se2/js/SE2B_Configuration_General.js HTTP/1.1" 304 -
0:0:0:0:0:0:0:1 - - [18/Nov/2015:02:03:01 +0900] "GET /MenTomen/se2/js/SE2BasicCreator.js HTTP/1.1" 304 -
0:0:0:0:0:0:0:1 - - [18/Nov/2015:02:03:01 +0900] "GET /MenTomen/se2/js/smarteditor2.min.js HTTP/1.1" 304 -
0:0:0:0:0:0:0:1 - - [18/Nov/2015:02:03:01 +0900] "GET /MenTomen/se2/photo_uploader/plugin/hp_SE2M_AttachQuickPhoto.js HTTP/1.1" 304 -
0:0:0:0:0:0:0:1 - - [18/Nov/2015:02:03:01 +0900] "GET /MenTomen/se2/img/bg_text_tool.gif HTTP/1.1" 304 -
0:0:0:0:0:0:0:1 - - [18/Nov/2015:02:03:01 +0900] "GET /MenTomen/se2/img/icon_set.gif HTTP/1.1" 304 -
0:0:0:0:0:0:0:1 - - [18/Nov/2015:02:03:01 +0900] "GET /MenTomen/se2/img/ko_KR/text_tool_set.png?140317 HTTP/1.1" 304 -
0:0:0:0:0:0:0:1 - - [18/Nov/2015:02:03:01 +0900] "GET /MenTomen/se2/img/ko_KR/btn_set.png?130306 HTTP/1.1" 304 -
0:0:0:0:0:0:0:1 - - [18/Nov/2015:02:03:01 +0900] "GET /MenTomen/se2/smart_editor2_inputarea.html HTTP/1.1" 304 -
0:0:0:0:0:0:0:1 - - [18/Nov/2015:02:03:01 +0900] "GET /MenTomen/se2/css/smart_editor2_in.css HTTP/1.1" 304 -
0:0:0:0:0:0:0:1 - - [18/Nov/2015:02:03:02 +0900] "GET /MenTomen/BoardModify.bo?pageVal=4&num=5&page=1&boardIdx=13 HTTP/1.1" 200 4117
0:0:0:0:0:0:0:1 - - [18/Nov/2015:02:03:02 +0900] "GET /MenTomen/css/qna_board.css HTTP/1.1" 304 -
0:0:0:0:0:0:0:1 - - [18/Nov/2015:02:03:02 +0900] "GET /MenTomen/se2/js/HuskyEZCreator.js HTTP/1.1" 304 -
0:0:0:0:0:0:0:1 - - [18/Nov/2015:02:03:02 +0900] "GET /MenTomen/js/qna_board.js HTTP/1.1" 304 -
0:0:0:0:0:0:0:1 - - [18/Nov/2015:02:03:02 +0900] "GET /MenTomen/se2/SmartEditor2Skin.html HTTP/1.1" 304 -
0:0:0:0:0:0:0:1 - - [18/Nov/2015:02:03:02 +0900] "GET /MenTomen/se2/css/smart_editor2.css HTTP/1.1" 304 -
0:0:0:0:0:0:0:1 - - [18/Nov/2015:02:03:02 +0900] "GET /MenTomen/se2/js/jindo.min.js HTTP/1.1" 304 -
0:0:0:0:0:0:0:1 - - [18/Nov/2015:02:03:02 +0900] "GET /MenTomen/se2/js/jindo_component.js HTTP/1.1" 304 -
0:0:0:0:0:0:0:1 - - [18/Nov/2015:02:03:02 +0900] "GET /MenTomen/se2/js/SE2B_Configuration_Service.js HTTP/1.1" 304 -
0:0:0:0:0:0:0:1 - - [18/Nov/2015:02:03:02 +0900] "GET /MenTomen/se2/js/SE2B_Configuration_General.js HTTP/1.1" 304 -
0:0:0:0:0:0:0:1 - - [18/Nov/2015:02:03:02 +0900] "GET /MenTomen/se2/js/SE2BasicCreator.js HTTP/1.1" 304 -
0:0:0:0:0:0:0:1 - - [18/Nov/2015:02:03:02 +0900] "GET /MenTomen/se2/js/smarteditor2.min.js HTTP/1.1" 304 -
0:0:0:0:0:0:0:1 - - [18/Nov/2015:02:03:02 +0900] "GET /MenTomen/se2/photo_uploader/plugin/hp_SE2M_AttachQuickPhoto.js HTTP/1.1" 304 -
0:0:0:0:0:0:0:1 - - [18/Nov/2015:02:03:02 +0900] "GET /MenTomen/se2/img/bg_text_tool.gif HTTP/1.1" 304 -
0:0:0:0:0:0:0:1 - - [18/Nov/2015:02:03:02 +0900] "GET /MenTomen/se2/img/ko_KR/btn_set.png?130306 HTTP/1.1" 304 -
0:0:0:0:0:0:0:1 - - [18/Nov/2015:02:03:02 +0900] "GET /MenTomen/se2/img/icon_set.gif HTTP/1.1" 304 -
0:0:0:0:0:0:0:1 - - [18/Nov/2015:02:03:02 +0900] "GET /MenTomen/se2/img/ko_KR/text_tool_set.png?140317 HTTP/1.1" 304 -
0:0:0:0:0:0:0:1 - - [18/Nov/2015:02:03:02 +0900] "GET /MenTomen/se2/smart_editor2_inputarea.html HTTP/1.1" 304 -
0:0:0:0:0:0:0:1 - - [18/Nov/2015:02:03:02 +0900] "GET /MenTomen/se2/css/smart_editor2_in.css HTTP/1.1" 304 -
0:0:0:0:0:0:0:1 - - [18/Nov/2015:02:03:02 +0900] "GET /MenTomen/BoardModify.bo?pageVal=4&num=5&page=1&boardIdx=13 HTTP/1.1" 200 4117
0:0:0:0:0:0:0:1 - - [18/Nov/2015:02:03:02 +0900] "GET /MenTomen/css/qna_board.css HTTP/1.1" 304 -
0:0:0:0:0:0:0:1 - - [18/Nov/2015:02:03:02 +0900] "GET /MenTomen/se2/js/HuskyEZCreator.js HTTP/1.1" 304 -
0:0:0:0:0:0:0:1 - - [18/Nov/2015:02:03:02 +0900] "GET /MenTomen/js/qna_board.js HTTP/1.1" 304 -
0:0:0:0:0:0:0:1 - - [18/Nov/2015:02:03:02 +0900] "GET /MenTomen/se2/SmartEditor2Skin.html HTTP/1.1" 304 -
0:0:0:0:0:0:0:1 - - [18/Nov/2015:02:03:03 +0900] "GET /MenTomen/se2/css/smart_editor2.css HTTP/1.1" 304 -
0:0:0:0:0:0:0:1 - - [18/Nov/2015:02:03:03 +0900] "GET /MenTomen/se2/js/jindo.min.js HTTP/1.1" 304 -
0:0:0:0:0:0:0:1 - - [18/Nov/2015:02:03:03 +0900] "GET /MenTomen/se2/js/jindo_component.js HTTP/1.1" 304 -
0:0:0:0:0:0:0:1 - - [18/Nov/2015:02:03:03 +0900] "GET /MenTomen/se2/js/SE2B_Configuration_Service.js HTTP/1.1" 304 -
0:0:0:0:0:0:0:1 - - [18/Nov/2015:02:03:03 +0900] "GET /MenTomen/se2/js/SE2B_Configuration_General.js HTTP/1.1" 304 -
0:0:0:0:0:0:0:1 - - [18/Nov/2015:02:03:03 +0900] "GET /MenTomen/se2/js/SE2BasicCreator.js HTTP/1.1" 304 -
0:0:0:0:0:0:0:1 - - [18/Nov/2015:02:03:03 +0900] "GET /MenTomen/se2/photo_uploader/plugin/hp_SE2M_AttachQuickPhoto.js HTTP/1.1" 304 -
0:0:0:0:0:0:0:1 - - [18/Nov/2015:02:03:03 +0900] "GET /MenTomen/se2/js/smarteditor2.min.js HTTP/1.1" 304 -
0:0:0:0:0:0:0:1 - - [18/Nov/2015:02:03:03 +0900] "GET /MenTomen/se2/img/bg_text_tool.gif HTTP/1.1" 304 -
0:0:0:0:0:0:0:1 - - [18/Nov/2015:02:03:03 +0900] "GET /MenTomen/se2/img/ko_KR/btn_set.png?130306 HTTP/1.1" 304 -
0:0:0:0:0:0:0:1 - - [18/Nov/2015:02:03:03 +0900] "GET /MenTomen/se2/img/icon_set.gif HTTP/1.1" 304 -
0:0:0:0:0:0:0:1 - - [18/Nov/2015:02:03:03 +0900] "GET /MenTomen/se2/img/ko_KR/text_tool_set.png?140317 HTTP/1.1" 304 -
0:0:0:0:0:0:0:1 - - [18/Nov/2015:02:03:03 +0900] "GET /MenTomen/se2/smart_editor2_inputarea.html HTTP/1.1" 304 -
0:0:0:0:0:0:0:1 - - [18/Nov/2015:02:03:03 +0900] "GET /MenTomen/se2/css/smart_editor2_in.css HTTP/1.1" 304 -
0:0:0:0:0:0:0:1 - - [18/Nov/2015:02:03:03 +0900] "GET /MenTomen/BoardModify.bo?pageVal=4&num=5&page=1&boardIdx=13 HTTP/1.1" 200 4117
0:0:0:0:0:0:0:1 - - [18/Nov/2015:02:03:03 +0900] "GET /MenTomen/css/qna_board.css HTTP/1.1" 304 -
0:0:0:0:0:0:0:1 - - [18/Nov/2015:02:03:03 +0900] "GET /MenTomen/se2/js/HuskyEZCreator.js HTTP/1.1" 304 -
0:0:0:0:0:0:0:1 - - [18/Nov/2015:02:03:03 +0900] "GET /MenTomen/js/qna_board.js HTTP/1.1" 304 -
0:0:0:0:0:0:0:1 - - [18/Nov/2015:02:03:03 +0900] "GET /MenTomen/se2/SmartEditor2Skin.html HTTP/1.1" 304 -
0:0:0:0:0:0:0:1 - - [18/Nov/2015:02:03:03 +0900] "GET /MenTomen/se2/js/jindo.min.js HTTP/1.1" 304 -
0:0:0:0:0:0:0:1 - - [18/Nov/2015:02:03:03 +0900] "GET /MenTomen/se2/css/smart_editor2.css HTTP/1.1" 304 -
0:0:0:0:0:0:0:1 - - [18/Nov/2015:02:03:03 +0900] "GET /MenTomen/se2/js/jindo_component.js HTTP/1.1" 304 -
0:0:0:0:0:0:0:1 - - [18/Nov/2015:02:03:03 +0900] "GET /MenTomen/se2/js/SE2B_Configuration_Service.js HTTP/1.1" 304 -
0:0:0:0:0:0:0:1 - - [18/Nov/2015:02:03:03 +0900] "GET /MenTomen/se2/js/SE2B_Configuration_General.js HTTP/1.1" 304 -
0:0:0:0:0:0:0:1 - - [18/Nov/2015:02:03:03 +0900] "GET /MenTomen/se2/js/SE2BasicCreator.js HTTP/1.1" 304 -
0:0:0:0:0:0:0:1 - - [18/Nov/2015:02:03:03 +0900] "GET /MenTomen/se2/js/smarteditor2.min.js HTTP/1.1" 304 -
0:0:0:0:0:0:0:1 - - [18/Nov/2015:02:03:03 +0900] "GET /MenTomen/se2/photo_uploader/plugin/hp_SE2M_AttachQuickPhoto.js HTTP/1.1" 304 -
0:0:0:0:0:0:0:1 - - [18/Nov/2015:02:03:03 +0900] "GET /MenTomen/se2/img/bg_text_tool.gif HTTP/1.1" 304 -
0:0:0:0:0:0:0:1 - - [18/Nov/2015:02:03:03 +0900] "GET /MenTomen/se2/img/ko_KR/btn_set.png?130306 HTTP/1.1" 304 -
0:0:0:0:0:0:0:1 - - [18/Nov/2015:02:03:03 +0900] "GET /MenTomen/se2/img/icon_set.gif HTTP/1.1" 304 -
0:0:0:0:0:0:0:1 - - [18/Nov/2015:02:03:03 +0900] "GET /MenTomen/se2/img/ko_KR/text_tool_set.png?140317 HTTP/1.1" 304 -
0:0:0:0:0:0:0:1 - - [18/Nov/2015:02:03:03 +0900] "GET /MenTomen/se2/smart_editor2_inputarea.html HTTP/1.1" 304 -
0:0:0:0:0:0:0:1 - - [18/Nov/2015:02:03:03 +0900] "GET /MenTomen/se2/css/smart_editor2_in.css HTTP/1.1" 304 -
0:0:0:0:0:0:0:1 - - [18/Nov/2015:02:03:03 +0900] "GET /MenTomen/BoardModify.bo?pageVal=4&num=5&page=1&boardIdx=13 HTTP/1.1" 200 4117
0:0:0:0:0:0:0:1 - - [18/Nov/2015:02:03:03 +0900] "GET /MenTomen/css/qna_board.css HTTP/1.1" 304 -
0:0:0:0:0:0:0:1 - - [18/Nov/2015:02:03:03 +0900] "GET /MenTomen/se2/js/HuskyEZCreator.js HTTP/1.1" 304 -
0:0:0:0:0:0:0:1 - - [18/Nov/2015:02:03:03 +0900] "GET /MenTomen/js/qna_board.js HTTP/1.1" 304 -
0:0:0:0:0:0:0:1 - - [18/Nov/2015:02:03:04 +0900] "GET /MenTomen/se2/SmartEditor2Skin.html HTTP/1.1" 304 -
0:0:0:0:0:0:0:1 - - [18/Nov/2015:02:03:04 +0900] "GET /MenTomen/se2/css/smart_editor2.css HTTP/1.1" 304 -
0:0:0:0:0:0:0:1 - - [18/Nov/2015:02:03:04 +0900] "GET /MenTomen/se2/js/jindo.min.js HTTP/1.1" 304 -
0:0:0:0:0:0:0:1 - - [18/Nov/2015:02:03:04 +0900] "GET /MenTomen/se2/js/jindo_component.js HTTP/1.1" 304 -
0:0:0:0:0:0:0:1 - - [18/Nov/2015:02:03:04 +0900] "GET /MenTomen/se2/js/SE2B_Configuration_Service.js HTTP/1.1" 304 -
0:0:0:0:0:0:0:1 - - [18/Nov/2015:02:03:04 +0900] "GET /MenTomen/se2/js/SE2B_Configuration_General.js HTTP/1.1" 304 -
0:0:0:0:0:0:0:1 - - [18/Nov/2015:02:03:04 +0900] "GET /MenTomen/se2/js/SE2BasicCreator.js HTTP/1.1" 304 -
0:0:0:0:0:0:0:1 - - [18/Nov/2015:02:03:04 +0900] "GET /MenTomen/se2/js/smarteditor2.min.js HTTP/1.1" 304 -
0:0:0:0:0:0:0:1 - - [18/Nov/2015:02:03:04 +0900] "GET /MenTomen/se2/photo_uploader/plugin/hp_SE2M_AttachQuickPhoto.js HTTP/1.1" 304 -
0:0:0:0:0:0:0:1 - - [18/Nov/2015:02:03:04 +0900] "GET /MenTomen/se2/img/bg_text_tool.gif HTTP/1.1" 304 -
0:0:0:0:0:0:0:1 - - [18/Nov/2015:02:03:04 +0900] "GET /MenTomen/se2/img/ko_KR/text_tool_set.png?140317 HTTP/1.1" 304 -
0:0:0:0:0:0:0:1 - - [18/Nov/2015:02:03:04 +0900] "GET /MenTomen/se2/img/icon_set.gif HTTP/1.1" 304 -
0:0:0:0:0:0:0:1 - - [18/Nov/2015:02:03:04 +0900] "GET /MenTomen/se2/img/ko_KR/btn_set.png?130306 HTTP/1.1" 304 -
0:0:0:0:0:0:0:1 - - [18/Nov/2015:02:03:04 +0900] "GET /MenTomen/se2/smart_editor2_inputarea.html HTTP/1.1" 304 -
0:0:0:0:0:0:0:1 - - [18/Nov/2015:02:03:04 +0900] "GET /MenTomen/se2/css/smart_editor2_in.css HTTP/1.1" 304 -
0:0:0:0:0:0:0:1 - - [18/Nov/2015:02:03:30 +0900] "GET /MenTomen/BoardModify.bo?pageVal=4&num=5&page=1&boardIdx=13 HTTP/1.1" 200 4104
0:0:0:0:0:0:0:1 - - [18/Nov/2015:02:03:30 +0900] "GET /MenTomen/css/qna_board.css HTTP/1.1" 304 -
0:0:0:0:0:0:0:1 - - [18/Nov/2015:02:03:30 +0900] "GET /MenTomen/se2/js/HuskyEZCreator.js HTTP/1.1" 304 -
0:0:0:0:0:0:0:1 - - [18/Nov/2015:02:03:30 +0900] "GET /MenTomen/js/qna_board.js HTTP/1.1" 304 -
0:0:0:0:0:0:0:1 - - [18/Nov/2015:02:03:31 +0900] "GET /MenTomen/se2/SmartEditor2Skin.html HTTP/1.1" 304 -
0:0:0:0:0:0:0:1 - - [18/Nov/2015:02:03:31 +0900] "GET /MenTomen/se2/css/smart_editor2.css HTTP/1.1" 304 -
0:0:0:0:0:0:0:1 - - [18/Nov/2015:02:03:31 +0900] "GET /MenTomen/se2/js/jindo.min.js HTTP/1.1" 304 -
0:0:0:0:0:0:0:1 - - [18/Nov/2015:02:03:31 +0900] "GET /MenTomen/se2/js/jindo_component.js HTTP/1.1" 304 -
0:0:0:0:0:0:0:1 - - [18/Nov/2015:02:03:31 +0900] "GET /MenTomen/se2/js/SE2B_Configuration_General.js HTTP/1.1" 304 -
0:0:0:0:0:0:0:1 - - [18/Nov/2015:02:03:31 +0900] "GET /MenTomen/se2/js/SE2B_Configuration_Service.js HTTP/1.1" 304 -
0:0:0:0:0:0:0:1 - - [18/Nov/2015:02:03:31 +0900] "GET /MenTomen/se2/js/smarteditor2.min.js HTTP/1.1" 304 -
0:0:0:0:0:0:0:1 - - [18/Nov/2015:02:03:31 +0900] "GET /MenTomen/se2/js/SE2BasicCreator.js HTTP/1.1" 304 -
0:0:0:0:0:0:0:1 - - [18/Nov/2015:02:03:31 +0900] "GET /MenTomen/se2/photo_uploader/plugin/hp_SE2M_AttachQuickPhoto.js HTTP/1.1" 304 -
0:0:0:0:0:0:0:1 - - [18/Nov/2015:02:03:31 +0900] "GET /MenTomen/se2/img/bg_text_tool.gif HTTP/1.1" 304 -
0:0:0:0:0:0:0:1 - - [18/Nov/2015:02:03:31 +0900] "GET /MenTomen/se2/img/icon_set.gif HTTP/1.1" 304 -
0:0:0:0:0:0:0:1 - - [18/Nov/2015:02:03:31 +0900] "GET /MenTomen/se2/img/ko_KR/text_tool_set.png?140317 HTTP/1.1" 304 -
0:0:0:0:0:0:0:1 - - [18/Nov/2015:02:03:31 +0900] "GET /MenTomen/se2/img/ko_KR/btn_set.png?130306 HTTP/1.1" 304 -
0:0:0:0:0:0:0:1 - - [18/Nov/2015:02:03:31 +0900] "GET /MenTomen/se2/smart_editor2_inputarea.html HTTP/1.1" 304 -
0:0:0:0:0:0:0:1 - - [18/Nov/2015:02:03:31 +0900] "GET /MenTomen/se2/css/smart_editor2_in.css HTTP/1.1" 304 -
0:0:0:0:0:0:0:1 - - [18/Nov/2015:02:03:34 +0900] "POST /MenTomen/BoardModifyAction.bo HTTP/1.1" 200 3554
0:0:0:0:0:0:0:1 - - [18/Nov/2015:02:03:37 +0900] "GET /MenTomen/BoardList.bo?pageVal=4&boardIdx=13&page=1 HTTP/1.1" 200 3826
0:0:0:0:0:0:0:1 - - [18/Nov/2015:02:03:39 +0900] "GET /MenTomen/BoardDetailAction.bo?pageVal=4&num=5&page=1&boardIdx=13 HTTP/1.1" 200 3554
0:0:0:0:0:0:0:1 - - [18/Nov/2015:02:03:40 +0900] "GET /MenTomen/BoardList.bo?pageVal=4&boardIdx=13&page=1 HTTP/1.1" 200 3826
0:0:0:0:0:0:0:1 - - [18/Nov/2015:02:03:42 +0900] "GET /MenTomen/BoardWrite.bo?pageVal=4&boardIdx=13 HTTP/1.1" 200 3599
0:0:0:0:0:0:0:1 - - [18/Nov/2015:02:03:58 +0900] "POST /MenTomen/BoardAddAction.bo HTTP/1.1" 200 -
